{"hash":"507bebe25916465a3ba1c8d16ca517767ff2af16","data":{"posts":{"totalCount":13,"pageInfo":{"totalPages":3,"currentPage":3},"edges":[{"node":{"id":"e85b8e2d598ef5b297f9fee5627b6e18","title":"Creating Symlinks in OSX","timeToRead":1,"datetime":"2015-11-12 00:00:00","content":"<p>If you are just getting started with using the Terminal in OSX, you may have trouble getting to common things like your hosts file. It is possible to create a Symlink (symbolic link) or shortcut in Terminal to get to that specific folder extremely quickly.</p>\n<p>Use the following formula to create a symlink</p>\n<pre class=\"shiki\" style=\"background-color: #0F111A\"><code><span style=\"color: #FFFFFF\">ln -s /any/file/on/the/disk shortcut-name</span></code></pre>\n<p><strong>Example:</strong> Creating a symlink to your hosts file.</p>\n<pre class=\"shiki\" style=\"background-color: #0F111A\"><code><span style=\"color: #FFFFFF\">ln -s /etc/hosts hosts-shortcut</span></code></pre>\n<p>Now to quickly open your hosts file all you have to do is use the symlink you created. In this example, we are opening our hosts file with the vim text editor.</p>\n<pre class=\"shiki\" style=\"background-color: #0F111A\"><code><span style=\"color: #FFFFFF\">sudo vim hosts-shortcut</span></code></pre>\n<p><strong>Note:</strong> You must run sudo to modify your hosts file.</p>\n","excerpt":"","description":"It is possible in OSX to create a Symlink (symbolic link) or shortcut in Terminal to get to that specific folder extremely quickly.","path":"/creating-symlinks-in-osx/","cover":"","tags":[{"id":"mac osx","title":"mac osx","path":"/tag/mac%20osx/"}],"author":{"id":"bryan-dugan","title":"bryan-dugan","path":"/author/bryan-dugan/"}}}]}},"context":{}}