{"hash":"f019972ff65848b69469a0a57603a0490ab2176d","data":{"author":{"id":"bryan-dugan","title":"bryan-dugan","path":"/author/bryan-dugan/","belongsTo":{"totalCount":16,"pageInfo":{"totalPages":3,"currentPage":3},"edges":[{"node":{"id":"9ee7c3f40b3dfc950c10ff1e0cf74f70","title":"Website Questionnaire","datetime":"2018-02-22 00:00:00","path":"/website-questionnaire/","content":"<p>While building a website for clients, it's a good idea to get a better understanding of exactly why they need a website as well as knowing what content is going to go onto the website and their overall goals. Here is an example website questionnaire that I hand out to clients to get a better understanding of what it is they are looking for, as well as being able to determine the solutions and pricing I need to offer them.</p>\n<p><strong>Note:</strong> that while building your questionnaire, it's a good idea to keep the questions to a minimum. I've also found that most clients feel much more comfortable circling answers, so any question that can be multiple choice, make it multiple choice.</p>\n<hr>\n<p>Client Name:</p>\n<p>Client Date:</p>\n<h2 id=\"about-the-business\"><a href=\"#about-the-business\" aria-hidden=\"true\"><span class=\"icon icon-link\"></span></a>About the business</h2>\n<p><strong>Describe your business/product.</strong></p>\n<p><strong>What is the primary message you want to convey to the customer?</strong></p>\n<p><strong>Who are your top competitors?</strong></p>\n<p><strong>What sets you apart from your competition? Why should people buy from you?</strong></p>\n<p><strong>Is there a unique story behind the business name or history?</strong></p>\n<p><strong>Describe your target audience.</strong></p>\n<h2 id=\"about-the-website\"><a href=\"#about-the-website\" aria-hidden=\"true\"><span class=\"icon icon-link\"></span></a>About the website</h2>\n<p><strong>List websites related to your business that you like. What do you like about them?</strong></p>\n<p><strong>What are your top products/services that bring in income? (list up to 3)</strong></p>\n<h2 id=\"about-the-project\"><a href=\"#about-the-project\" aria-hidden=\"true\"><span class=\"icon icon-link\"></span></a>About the project</h2>\n<p><strong>What is your current goal on why you want to build a new website?</strong></p>\n<p>(e.g., bring in new leads, new look and feel, optimized website, sell a new product, new product/service)</p>\n<p><strong>Did you need content written for the website?</strong></p>\n<p><strong>When do you need the project completed? List an exact date if you need it for a product/service launch.</strong> </p>\n<p>(1-2 months, 3-6 months 7-9 months, 1+ years)</p>\n<p><strong>What kind of budget did you have in mind?</strong></p>\n<p>($4-5k, $6-10k, $11k-25k, $25k+)</p>\n<p><strong>How many pages is your site going to be?</strong></p>\n<p>(1-3? 3-7? 8-20? 20+)</p>\n<p><strong>What particular features are going to be included on the website?</strong></p>\n<p>(blog, photo gallery, E-commerce, staff gallery, online bill pay)</p>\n<p>Feel free to list any other features you feel you will need.</p>\n<p><strong>Are there any other services you’re interested in?</strong> </p>\n<p>(photography, branding, print materials, video)</p>\n<p><strong>Keyword focus.</strong></p>\n<p>If you've done any research on keywords you would like to rank for, list them here.</p>\n","excerpt":"","description":"An example website questionnaire to hand out to potential clients.","timeToRead":2,"tags":[{"id":"business","title":"business","path":"/tag/business/"},{"id":"development","title":"development","path":"/tag/development/"},{"id":"design","title":"design","path":"/tag/design/"}]}},{"node":{"id":"adefb9228f7969f476729a991c1eae54","title":"Vim Cheatsheet","datetime":"2016-11-19 00:00:00","path":"/vim-cheatsheet/","content":"<p>A list of common Vim Shortcuts that you will be using while getting started with Vim.</p>\n<blockquote>\n<p><strong>Note:</strong> Vim is case sensitive. For Example, if the command is <code class=\"shiki-inline\" style=\"background: #2e3440; color: #d8dee9\">V</code> you would type <code class=\"shiki-inline\" style=\"background: #2e3440; color: #d8dee9\">shift</code> + <code class=\"shiki-inline\" style=\"background: #2e3440; color: #d8dee9\">v</code>.</p>\n</blockquote>\n<h2 id=\"the-two-main-modes\"><a href=\"#the-two-main-modes\" aria-hidden=\"true\"><span class=\"icon icon-link\"></span></a>The two main modes</h2>\n<p>In Vim there are two main modes. Command mode, and insert mode. Command mode lets you modify and select text, where insert mode allows you to type new text.</p>\n<table>\n<thead>\n<tr>\n<th align=\"left\">Action</th>\n<th align=\"left\">Command</th>\n</tr>\n</thead>\n<tbody>\n<tr>\n<td align=\"left\">Text mode</td>\n<td align=\"left\"><code class=\"shiki-inline\" style=\"background: #2e3440; color: #d8dee9\">i</code></td>\n</tr>\n<tr>\n<td align=\"left\">Command mode</td>\n<td align=\"left\"><code class=\"shiki-inline\" style=\"background: #2e3440; color: #d8dee9\">esc</code></td>\n</tr>\n</tbody>\n</table>\n<h2 id=\"basic-shortcuts\"><a href=\"#basic-shortcuts\" aria-hidden=\"true\"><span class=\"icon icon-link\"></span></a>Basic shortcuts</h2>\n<table>\n<thead>\n<tr>\n<th align=\"left\">Action</th>\n<th align=\"left\">Command</th>\n</tr>\n</thead>\n<tbody>\n<tr>\n<td align=\"left\">Select character</td>\n<td align=\"left\"><code class=\"shiki-inline\" style=\"background: #2e3440; color: #d8dee9\">v</code></td>\n</tr>\n<tr>\n<td align=\"left\">Select line</td>\n<td align=\"left\"><code class=\"shiki-inline\" style=\"background: #2e3440; color: #d8dee9\">V</code></td>\n</tr>\n<tr>\n<td align=\"left\">Cut</td>\n<td align=\"left\"><code class=\"shiki-inline\" style=\"background: #2e3440; color: #d8dee9\">d</code></td>\n</tr>\n<tr>\n<td align=\"left\">Copy</td>\n<td align=\"left\"><code class=\"shiki-inline\" style=\"background: #2e3440; color: #d8dee9\">y</code></td>\n</tr>\n<tr>\n<td align=\"left\">Paste before</td>\n<td align=\"left\"><code class=\"shiki-inline\" style=\"background: #2e3440; color: #d8dee9\">P</code></td>\n</tr>\n<tr>\n<td align=\"left\">Paste after</td>\n<td align=\"left\"><code class=\"shiki-inline\" style=\"background: #2e3440; color: #d8dee9\">p</code></td>\n</tr>\n<tr>\n<td align=\"left\">Move around editor (alternatively, you can use the arrow keys)</td>\n<td align=\"left\"><code class=\"shiki-inline\" style=\"background: #2e3440; color: #d8dee9\">h</code>,<code class=\"shiki-inline\" style=\"background: #2e3440; color: #d8dee9\">j</code>,<code class=\"shiki-inline\" style=\"background: #2e3440; color: #d8dee9\">k</code>,<code class=\"shiki-inline\" style=\"background: #2e3440; color: #d8dee9\">l</code></td>\n</tr>\n</tbody>\n</table>\n<h3 id=\"word-movement\"><a href=\"#word-movement\" aria-hidden=\"true\"><span class=\"icon icon-link\"></span></a>Word Movement</h3>\n<table>\n<thead>\n<tr>\n<th align=\"left\">Action</th>\n<th align=\"left\">Command</th>\n</tr>\n</thead>\n<tbody>\n<tr>\n<td align=\"left\">Beginning of next word</td>\n<td align=\"left\"><code class=\"shiki-inline\" style=\"background: #2e3440; color: #d8dee9\">w</code></td>\n</tr>\n<tr>\n<td align=\"left\">Last letter of word</td>\n<td align=\"left\"><code class=\"shiki-inline\" style=\"background: #2e3440; color: #d8dee9\">e</code></td>\n</tr>\n<tr>\n<td align=\"left\">Beginning of previous word</td>\n<td align=\"left\"><code class=\"shiki-inline\" style=\"background: #2e3440; color: #d8dee9\">b</code></td>\n</tr>\n<tr>\n<td align=\"left\">Move to matching parentheses or brackets</td>\n<td align=\"left\"><code class=\"shiki-inline\" style=\"background: #2e3440; color: #d8dee9\">%</code></td>\n</tr>\n<tr>\n<td align=\"left\">Move to the beginning of a line</td>\n<td align=\"left\"><code class=\"shiki-inline\" style=\"background: #2e3440; color: #d8dee9\">0</code></td>\n</tr>\n<tr>\n<td align=\"left\">Move to the end of the line</td>\n<td align=\"left\"><code class=\"shiki-inline\" style=\"background: #2e3440; color: #d8dee9\">$</code></td>\n</tr>\n<tr>\n<td align=\"left\">Find next instance of a word</td>\n<td align=\"left\"><code class=\"shiki-inline\" style=\"background: #2e3440; color: #d8dee9\">/ul</code></td>\n</tr>\n<tr>\n<td align=\"left\">Go to the beginning of a file</td>\n<td align=\"left\"><code class=\"shiki-inline\" style=\"background: #2e3440; color: #d8dee9\">gg</code></td>\n</tr>\n<tr>\n<td align=\"left\">Go to the end of a file</td>\n<td align=\"left\"><code class=\"shiki-inline\" style=\"background: #2e3440; color: #d8dee9\">G</code></td>\n</tr>\n<tr>\n<td align=\"left\">Go to line number</td>\n<td align=\"left\"><code class=\"shiki-inline\" style=\"background: #2e3440; color: #d8dee9\">#gg</code></td>\n</tr>\n<tr>\n<td align=\"left\">Search</td>\n<td align=\"left\"><code class=\"shiki-inline\" style=\"background: #2e3440; color: #d8dee9\">/</code></td>\n</tr>\n<tr>\n<td align=\"left\">Search next</td>\n<td align=\"left\"><code class=\"shiki-inline\" style=\"background: #2e3440; color: #d8dee9\">n</code></td>\n</tr>\n<tr>\n<td align=\"left\">Search previous</td>\n<td align=\"left\"><code class=\"shiki-inline\" style=\"background: #2e3440; color: #d8dee9\">n</code></td>\n</tr>\n<tr>\n<td align=\"left\">Insert new line after</td>\n<td align=\"left\"><code class=\"shiki-inline\" style=\"background: #2e3440; color: #d8dee9\">o</code></td>\n</tr>\n<tr>\n<td align=\"left\">Insert new line before</td>\n<td align=\"left\"><code class=\"shiki-inline\" style=\"background: #2e3440; color: #d8dee9\">O</code></td>\n</tr>\n<tr>\n<td align=\"left\">Remove character</td>\n<td align=\"left\"><code class=\"shiki-inline\" style=\"background: #2e3440; color: #d8dee9\">x</code></td>\n</tr>\n<tr>\n<td align=\"left\">Replace character</td>\n<td align=\"left\"><code class=\"shiki-inline\" style=\"background: #2e3440; color: #d8dee9\">r</code></td>\n</tr>\n<tr>\n<td align=\"left\">Delete character</td>\n<td align=\"left\"><code class=\"shiki-inline\" style=\"background: #2e3440; color: #d8dee9\">d</code></td>\n</tr>\n<tr>\n<td align=\"left\">Delete word / etc</td>\n<td align=\"left\"><code class=\"shiki-inline\" style=\"background: #2e3440; color: #d8dee9\">d</code> + word</td>\n</tr>\n<tr>\n<td align=\"left\">Repeat previous command</td>\n<td align=\"left\"><code class=\"shiki-inline\" style=\"background: #2e3440; color: #d8dee9\">.</code></td>\n</tr>\n<tr>\n<td align=\"left\">Save</td>\n<td align=\"left\"><code class=\"shiki-inline\" style=\"background: #2e3440; color: #d8dee9\">:w</code></td>\n</tr>\n<tr>\n<td align=\"left\">Quit</td>\n<td align=\"left\"><code class=\"shiki-inline\" style=\"background: #2e3440; color: #d8dee9\">:q</code></td>\n</tr>\n<tr>\n<td align=\"left\">Quit without saving</td>\n<td align=\"left\"><code class=\"shiki-inline\" style=\"background: #2e3440; color: #d8dee9\">:q!</code></td>\n</tr>\n<tr>\n<td align=\"left\">Undo</td>\n<td align=\"left\"><code class=\"shiki-inline\" style=\"background: #2e3440; color: #d8dee9\">u</code></td>\n</tr>\n<tr>\n<td align=\"left\">Redo</td>\n<td align=\"left\"><code class=\"shiki-inline\" style=\"background: #2e3440; color: #d8dee9\">ctrl r</code></td>\n</tr>\n<tr>\n<td align=\"left\">Help docs</td>\n<td align=\"left\"><code class=\"shiki-inline\" style=\"background: #2e3440; color: #d8dee9\">:help</code></td>\n</tr>\n</tbody>\n</table>\n","excerpt":"","description":"A list of common Vim Shortcuts that you will be using while getting started with Vim.","timeToRead":1,"tags":[{"id":"development","title":"development","path":"/tag/development/"},{"id":"vim","title":"vim","path":"/tag/vim/"}]}},{"node":{"id":"015f10c76b0d8da7acbc7847bf0d7651","title":"Setting up a new Mac for Development","datetime":"2016-09-14 00:00:00","path":"/setting-up-a-new-mac-for-development/","content":"<p>This is the Homebrew Cask setup of my personal development laptop. Feel free to use this as a starting point for a fresh install of any new OSX machine.</p>\n<h2 id=\"installing-homebrew\"><a href=\"#installing-homebrew\" aria-hidden=\"true\"><span class=\"icon icon-link\"></span></a>Installing Homebrew</h2>\n<p>Homebrew is a command-line interface(CLI) package manager for OSX. In order to install Homebrew. Copy and paste the below command into your terminal to get started. If the below command doesn't work, take a look at the <a href=\"https://brew.sh\" target=\"_blank\" rel=\"nofollow noopener noreferrer\">Homebrew documentation</a>.</p>\n<pre class=\"shiki\" style=\"background-color: #0F111A\"><code><span style=\"color: #FFFFFF\">/usr/bin/ruby -e </span><span style=\"color: #89DDFF\">\"$(</span><span style=\"color: #C3E88D\">curl -fsSL https://raw.githubusercontent.com/Homebrew/install/master/install</span><span style=\"color: #89DDFF\">)\"</span></code></pre>\n<h3 id=\"add-homebrew-to-your-path\"><a href=\"#add-homebrew-to-your-path\" aria-hidden=\"true\"><span class=\"icon icon-link\"></span></a>Add Homebrew to your $PATH</h3>\n<p>In order for Homebrew to work properly, your <code class=\"shiki-inline\" style=\"background: #2e3440; color: #d8dee9\">bin</code> directory must first be added to your <code class=\"shiki-inline\" style=\"background: #2e3440; color: #d8dee9\">$PATH</code>.</p>\n<pre class=\"shiki\" style=\"background-color: #0F111A\"><code><span style=\"color: #82AAFF\">echo</span><span style=\"color: #FFFFFF\"> </span><span style=\"color: #89DDFF\">'</span><span style=\"color: #C3E88D\">export PATH=\"/usr/local/bin:$PATH\"</span><span style=\"color: #89DDFF\">'</span><span style=\"color: #FFFFFF\"> </span><span style=\"color: #C792EA\">&gt;&gt;</span><span style=\"color: #FFFFFF\"> </span><span style=\"color: #C792EA\">~</span><span style=\"color: #FFFFFF\">/.bash_profile</span></code></pre>\n<h2 id=\"installing-casks\"><a href=\"#installing-casks\" aria-hidden=\"true\"><span class=\"icon icon-link\"></span></a>Installing Casks</h2>\n<p>Casks are graphical user interface(GUI) applications that will be installed to your Mac's Applications folder. For a master list of all available Cask formulae, there is one available on the <a href=\"https://formulae.brew.sh/cask/\" target=\"_blank\" rel=\"nofollow noopener noreferrer\">official Brew website</a>. Use the lists I created as a starting point for installing your own applications and feel free to modify them to your liking. Also, be sure to hold onto your list in a Github Gist or cloud storage for safekeeping in case you need to set up a new computer.</p>\n<h3 id=\"design-applications\"><a href=\"#design-applications\" aria-hidden=\"true\"><span class=\"icon icon-link\"></span></a>Design Applications</h3>\n<p>Here is a list of all the design applications that I use.</p>\n<pre class=\"shiki\" style=\"background-color: #0F111A\"><code><span style=\"color: #FFFFFF\">brew cask install sketch</span>\n<span style=\"color: #FFFFFF\">brew cask install sketch-toolbox</span>\n<span style=\"color: #FFFFFF\">brew cask install adobe-creative-cloud</span>\n<span style=\"color: #FFFFFF\">brew cask install zeplin</span></code></pre>\n<h3 id=\"development-applications\"><a href=\"#development-applications\" aria-hidden=\"true\"><span class=\"icon icon-link\"></span></a>Development Applications</h3>\n<p>These are all the development related applications that I use.</p>\n<pre class=\"shiki\" style=\"background-color: #0F111A\"><code><span style=\"color: #FFFFFF\">brew cask install google-chrome</span>\n<span style=\"color: #FFFFFF\">brew cask install firefox</span>\n<span style=\"color: #FFFFFF\">brew cask install iterm2</span>\n<span style=\"color: #FFFFFF\">brew cask install visual-studio-code</span>\n<span style=\"color: #FFFFFF\">brew cask install postman</span>\n<span style=\"color: #FFFFFF\">brew cask install sequel-pro</span>\n<span style=\"color: #FFFFFF\">brew cask install filezilla</span>\n<span style=\"color: #FFFFFF\">brew cask install sourcetree</span></code></pre>\n<h3 id=\"regular-applications\"><a href=\"#regular-applications\" aria-hidden=\"true\"><span class=\"icon icon-link\"></span></a>Regular Applications</h3>\n<p>Here are some other handy applications that I use on a regular basis.</p>\n<pre class=\"shiki\" style=\"background-color: #0F111A\"><code><span style=\"color: #FFFFFF\">brew cask install vlc</span>\n<span style=\"color: #FFFFFF\">brew cask install google-backup-and-sync</span>\n<span style=\"color: #FFFFFF\">brew cask install spotify</span>\n<span style=\"color: #FFFFFF\">brew cask install slack</span>\n<span style=\"color: #FFFFFF\">brew cask install notion</span>\n<span style=\"color: #FFFFFF\">brew cask install 1password</span></code></pre>\n<h2 id=\"installing-homebrew-applications\"><a href=\"#installing-homebrew-applications\" aria-hidden=\"true\"><span class=\"icon icon-link\"></span></a>Installing Homebrew Applications</h2>\n<p>These are the most common development CLI applications that you'll be using with whatever development server you'll choose to use. <strong>Note:</strong> These are brew formulae, NOT casks, so be sure to not use cask when installing the applications.</p>\n<pre class=\"shiki\" style=\"background-color: #0F111A\"><code><span style=\"color: #FFFFFF\">brew install php</span>\n<span style=\"color: #FFFFFF\">brew install composer</span>\n<span style=\"color: #FFFFFF\">brew install mysql</span>\n<span style=\"color: #FFFFFF\">brew install yarn</span></code></pre>\n<h2 id=\"laravel-valet-as-a-local-development-server\"><a href=\"#laravel-valet-as-a-local-development-server\" aria-hidden=\"true\"><span class=\"icon icon-link\"></span></a>Laravel Valet as a Local Development Server</h2>\n<p>Laravel Valet is what I use as my local development server. I use it because it's easy to set up and doesn't require running a Vagrant box or anything else too complicated. It turns your Mac into a development server by running Nginx in the background as you start your computer. My personal favorite feature is that you can run <code class=\"shiki-inline\" style=\"background: #2e3440; color: #d8dee9\">valet park</code> in your local development directory, and any folder in that directory becomes a <code class=\"shiki-inline\" style=\"background: #2e3440; color: #d8dee9\">.test</code> domain. So if you have a folder called <code class=\"shiki-inline\" style=\"background: #2e3440; color: #d8dee9\">my-website</code>, open your favorite browser and type in <code class=\"shiki-inline\" style=\"background: #2e3440; color: #d8dee9\">my-website.test</code> and you'll be directed to your index file in the <code class=\"shiki-inline\" style=\"background: #2e3440; color: #d8dee9\">my-website</code> folder.</p>\n<p>To set up Valet, I highly recommend <a href=\"https://medium.com/@jalendport/running-craft-cms-3-on-laravel-valet-6df61e5193fd\" target=\"_blank\" rel=\"nofollow noopener noreferrer\">Jalen Davenport's absolutely wonderful guide</a> on how to set up Valet. It's geared towards Craft CMS development, but the basic install is all the same for whatever type of web development you'll be doing.</p>\n","excerpt":"","description":"This is the Homebrew Cask setup of my personal development laptop. Feel free to use this as a starting point for a fresh install of any new OSX machine.","timeToRead":2,"tags":[{"id":"mac osx","title":"mac osx","path":"/tag/mac%20osx/"}]}},{"node":{"id":"e85b8e2d598ef5b297f9fee5627b6e18","title":"Creating Symlinks in OSX","datetime":"2015-11-12 00:00:00","path":"/creating-symlinks-in-osx/","content":"<p>If you are just getting started with using the Terminal in OSX, you may have trouble getting to common things like your hosts file. It is possible to create a Symlink (symbolic link) or shortcut in Terminal to get to that specific folder extremely quickly.</p>\n<p>Use the following formula to create a symlink</p>\n<pre class=\"shiki\" style=\"background-color: #0F111A\"><code><span style=\"color: #FFFFFF\">ln -s /any/file/on/the/disk shortcut-name</span></code></pre>\n<p><strong>Example:</strong> Creating a symlink to your hosts file.</p>\n<pre class=\"shiki\" style=\"background-color: #0F111A\"><code><span style=\"color: #FFFFFF\">ln -s /etc/hosts hosts-shortcut</span></code></pre>\n<p>Now to quickly open your hosts file all you have to do is use the symlink you created. In this example, we are opening our hosts file with the vim text editor.</p>\n<pre class=\"shiki\" style=\"background-color: #0F111A\"><code><span style=\"color: #FFFFFF\">sudo vim hosts-shortcut</span></code></pre>\n<p><strong>Note:</strong> You must run sudo to modify your hosts file.</p>\n","excerpt":"","description":"It is possible in OSX to create a Symlink (symbolic link) or shortcut in Terminal to get to that specific folder extremely quickly.","timeToRead":1,"tags":[{"id":"mac osx","title":"mac osx","path":"/tag/mac%20osx/"}]}}]}}},"context":{}}