{"hash":"cffc245fd1dff2cecc60d836036beea8115ba5c1","data":{"tag":{"id":"development","title":"development","path":"/tag/development/","belongsTo":{"totalCount":8,"pageInfo":{"totalPages":2,"currentPage":2},"edges":[{"node":{"id":"9ee7c3f40b3dfc950c10ff1e0cf74f70","title":"Website Questionnaire","datetime":"2018-02-22 00:00:00","path":"/website-questionnaire/","content":"<p>While building a website for clients, it's a good idea to get a better understanding of exactly why they need a website as well as knowing what content is going to go onto the website and their overall goals. Here is an example website questionnaire that I hand out to clients to get a better understanding of what it is they are looking for, as well as being able to determine the solutions and pricing I need to offer them.</p>\n<p><strong>Note:</strong> that while building your questionnaire, it's a good idea to keep the questions to a minimum. I've also found that most clients feel much more comfortable circling answers, so any question that can be multiple choice, make it multiple choice.</p>\n<hr>\n<p>Client Name:</p>\n<p>Client Date:</p>\n<h2 id=\"about-the-business\"><a href=\"#about-the-business\" aria-hidden=\"true\"><span class=\"icon icon-link\"></span></a>About the business</h2>\n<p><strong>Describe your business/product.</strong></p>\n<p><strong>What is the primary message you want to convey to the customer?</strong></p>\n<p><strong>Who are your top competitors?</strong></p>\n<p><strong>What sets you apart from your competition? Why should people buy from you?</strong></p>\n<p><strong>Is there a unique story behind the business name or history?</strong></p>\n<p><strong>Describe your target audience.</strong></p>\n<h2 id=\"about-the-website\"><a href=\"#about-the-website\" aria-hidden=\"true\"><span class=\"icon icon-link\"></span></a>About the website</h2>\n<p><strong>List websites related to your business that you like. What do you like about them?</strong></p>\n<p><strong>What are your top products/services that bring in income? (list up to 3)</strong></p>\n<h2 id=\"about-the-project\"><a href=\"#about-the-project\" aria-hidden=\"true\"><span class=\"icon icon-link\"></span></a>About the project</h2>\n<p><strong>What is your current goal on why you want to build a new website?</strong></p>\n<p>(e.g., bring in new leads, new look and feel, optimized website, sell a new product, new product/service)</p>\n<p><strong>Did you need content written for the website?</strong></p>\n<p><strong>When do you need the project completed? List an exact date if you need it for a product/service launch.</strong> </p>\n<p>(1-2 months, 3-6 months 7-9 months, 1+ years)</p>\n<p><strong>What kind of budget did you have in mind?</strong></p>\n<p>($4-5k, $6-10k, $11k-25k, $25k+)</p>\n<p><strong>How many pages is your site going to be?</strong></p>\n<p>(1-3? 3-7? 8-20? 20+)</p>\n<p><strong>What particular features are going to be included on the website?</strong></p>\n<p>(blog, photo gallery, E-commerce, staff gallery, online bill pay)</p>\n<p>Feel free to list any other features you feel you will need.</p>\n<p><strong>Are there any other services you’re interested in?</strong> </p>\n<p>(photography, branding, print materials, video)</p>\n<p><strong>Keyword focus.</strong></p>\n<p>If you've done any research on keywords you would like to rank for, list them here.</p>\n","excerpt":"","description":"An example website questionnaire to hand out to potential clients.","timeToRead":2,"author":{"id":"bryan-dugan","title":"bryan-dugan","path":"/author/bryan-dugan/"}}},{"node":{"id":"adefb9228f7969f476729a991c1eae54","title":"Vim Cheatsheet","datetime":"2016-11-19 00:00:00","path":"/vim-cheatsheet/","content":"<p>A list of common Vim Shortcuts that you will be using while getting started with Vim.</p>\n<blockquote>\n<p><strong>Note:</strong> Vim is case sensitive. For Example, if the command is <code class=\"shiki-inline\" style=\"background: #2e3440; color: #d8dee9\">V</code> you would type <code class=\"shiki-inline\" style=\"background: #2e3440; color: #d8dee9\">shift</code> + <code class=\"shiki-inline\" style=\"background: #2e3440; color: #d8dee9\">v</code>.</p>\n</blockquote>\n<h2 id=\"the-two-main-modes\"><a href=\"#the-two-main-modes\" aria-hidden=\"true\"><span class=\"icon icon-link\"></span></a>The two main modes</h2>\n<p>In Vim there are two main modes. Command mode, and insert mode. Command mode lets you modify and select text, where insert mode allows you to type new text.</p>\n<table>\n<thead>\n<tr>\n<th align=\"left\">Action</th>\n<th align=\"left\">Command</th>\n</tr>\n</thead>\n<tbody>\n<tr>\n<td align=\"left\">Text mode</td>\n<td align=\"left\"><code class=\"shiki-inline\" style=\"background: #2e3440; color: #d8dee9\">i</code></td>\n</tr>\n<tr>\n<td align=\"left\">Command mode</td>\n<td align=\"left\"><code class=\"shiki-inline\" style=\"background: #2e3440; color: #d8dee9\">esc</code></td>\n</tr>\n</tbody>\n</table>\n<h2 id=\"basic-shortcuts\"><a href=\"#basic-shortcuts\" aria-hidden=\"true\"><span class=\"icon icon-link\"></span></a>Basic shortcuts</h2>\n<table>\n<thead>\n<tr>\n<th align=\"left\">Action</th>\n<th align=\"left\">Command</th>\n</tr>\n</thead>\n<tbody>\n<tr>\n<td align=\"left\">Select character</td>\n<td align=\"left\"><code class=\"shiki-inline\" style=\"background: #2e3440; color: #d8dee9\">v</code></td>\n</tr>\n<tr>\n<td align=\"left\">Select line</td>\n<td align=\"left\"><code class=\"shiki-inline\" style=\"background: #2e3440; color: #d8dee9\">V</code></td>\n</tr>\n<tr>\n<td align=\"left\">Cut</td>\n<td align=\"left\"><code class=\"shiki-inline\" style=\"background: #2e3440; color: #d8dee9\">d</code></td>\n</tr>\n<tr>\n<td align=\"left\">Copy</td>\n<td align=\"left\"><code class=\"shiki-inline\" style=\"background: #2e3440; color: #d8dee9\">y</code></td>\n</tr>\n<tr>\n<td align=\"left\">Paste before</td>\n<td align=\"left\"><code class=\"shiki-inline\" style=\"background: #2e3440; color: #d8dee9\">P</code></td>\n</tr>\n<tr>\n<td align=\"left\">Paste after</td>\n<td align=\"left\"><code class=\"shiki-inline\" style=\"background: #2e3440; color: #d8dee9\">p</code></td>\n</tr>\n<tr>\n<td align=\"left\">Move around editor (alternatively, you can use the arrow keys)</td>\n<td align=\"left\"><code class=\"shiki-inline\" style=\"background: #2e3440; color: #d8dee9\">h</code>,<code class=\"shiki-inline\" style=\"background: #2e3440; color: #d8dee9\">j</code>,<code class=\"shiki-inline\" style=\"background: #2e3440; color: #d8dee9\">k</code>,<code class=\"shiki-inline\" style=\"background: #2e3440; color: #d8dee9\">l</code></td>\n</tr>\n</tbody>\n</table>\n<h3 id=\"word-movement\"><a href=\"#word-movement\" aria-hidden=\"true\"><span class=\"icon icon-link\"></span></a>Word Movement</h3>\n<table>\n<thead>\n<tr>\n<th align=\"left\">Action</th>\n<th align=\"left\">Command</th>\n</tr>\n</thead>\n<tbody>\n<tr>\n<td align=\"left\">Beginning of next word</td>\n<td align=\"left\"><code class=\"shiki-inline\" style=\"background: #2e3440; color: #d8dee9\">w</code></td>\n</tr>\n<tr>\n<td align=\"left\">Last letter of word</td>\n<td align=\"left\"><code class=\"shiki-inline\" style=\"background: #2e3440; color: #d8dee9\">e</code></td>\n</tr>\n<tr>\n<td align=\"left\">Beginning of previous word</td>\n<td align=\"left\"><code class=\"shiki-inline\" style=\"background: #2e3440; color: #d8dee9\">b</code></td>\n</tr>\n<tr>\n<td align=\"left\">Move to matching parentheses or brackets</td>\n<td align=\"left\"><code class=\"shiki-inline\" style=\"background: #2e3440; color: #d8dee9\">%</code></td>\n</tr>\n<tr>\n<td align=\"left\">Move to the beginning of a line</td>\n<td align=\"left\"><code class=\"shiki-inline\" style=\"background: #2e3440; color: #d8dee9\">0</code></td>\n</tr>\n<tr>\n<td align=\"left\">Move to the end of the line</td>\n<td align=\"left\"><code class=\"shiki-inline\" style=\"background: #2e3440; color: #d8dee9\">$</code></td>\n</tr>\n<tr>\n<td align=\"left\">Find next instance of a word</td>\n<td align=\"left\"><code class=\"shiki-inline\" style=\"background: #2e3440; color: #d8dee9\">/ul</code></td>\n</tr>\n<tr>\n<td align=\"left\">Go to the beginning of a file</td>\n<td align=\"left\"><code class=\"shiki-inline\" style=\"background: #2e3440; color: #d8dee9\">gg</code></td>\n</tr>\n<tr>\n<td align=\"left\">Go to the end of a file</td>\n<td align=\"left\"><code class=\"shiki-inline\" style=\"background: #2e3440; color: #d8dee9\">G</code></td>\n</tr>\n<tr>\n<td align=\"left\">Go to line number</td>\n<td align=\"left\"><code class=\"shiki-inline\" style=\"background: #2e3440; color: #d8dee9\">#gg</code></td>\n</tr>\n<tr>\n<td align=\"left\">Search</td>\n<td align=\"left\"><code class=\"shiki-inline\" style=\"background: #2e3440; color: #d8dee9\">/</code></td>\n</tr>\n<tr>\n<td align=\"left\">Search next</td>\n<td align=\"left\"><code class=\"shiki-inline\" style=\"background: #2e3440; color: #d8dee9\">N</code></td>\n</tr>\n<tr>\n<td align=\"left\">Search previous</td>\n<td align=\"left\"><code class=\"shiki-inline\" style=\"background: #2e3440; color: #d8dee9\">n</code></td>\n</tr>\n<tr>\n<td align=\"left\">Insert new line after</td>\n<td align=\"left\"><code class=\"shiki-inline\" style=\"background: #2e3440; color: #d8dee9\">o</code></td>\n</tr>\n<tr>\n<td align=\"left\">Insert new line before</td>\n<td align=\"left\"><code class=\"shiki-inline\" style=\"background: #2e3440; color: #d8dee9\">O</code></td>\n</tr>\n<tr>\n<td align=\"left\">Remove character</td>\n<td align=\"left\"><code class=\"shiki-inline\" style=\"background: #2e3440; color: #d8dee9\">x</code></td>\n</tr>\n<tr>\n<td align=\"left\">Replace character</td>\n<td align=\"left\"><code class=\"shiki-inline\" style=\"background: #2e3440; color: #d8dee9\">r</code></td>\n</tr>\n<tr>\n<td align=\"left\">Delete character</td>\n<td align=\"left\"><code class=\"shiki-inline\" style=\"background: #2e3440; color: #d8dee9\">d</code></td>\n</tr>\n<tr>\n<td align=\"left\">Delete word / etc</td>\n<td align=\"left\"><code class=\"shiki-inline\" style=\"background: #2e3440; color: #d8dee9\">d</code> + word</td>\n</tr>\n<tr>\n<td align=\"left\">Repeat previous command</td>\n<td align=\"left\"><code class=\"shiki-inline\" style=\"background: #2e3440; color: #d8dee9\">.</code></td>\n</tr>\n<tr>\n<td align=\"left\">Save</td>\n<td align=\"left\"><code class=\"shiki-inline\" style=\"background: #2e3440; color: #d8dee9\">:w</code></td>\n</tr>\n<tr>\n<td align=\"left\">Quit</td>\n<td align=\"left\"><code class=\"shiki-inline\" style=\"background: #2e3440; color: #d8dee9\">:q</code></td>\n</tr>\n<tr>\n<td align=\"left\">Quit without saving</td>\n<td align=\"left\"><code class=\"shiki-inline\" style=\"background: #2e3440; color: #d8dee9\">:q!</code></td>\n</tr>\n<tr>\n<td align=\"left\">Undo</td>\n<td align=\"left\"><code class=\"shiki-inline\" style=\"background: #2e3440; color: #d8dee9\">u</code></td>\n</tr>\n<tr>\n<td align=\"left\">Redo</td>\n<td align=\"left\"><code class=\"shiki-inline\" style=\"background: #2e3440; color: #d8dee9\">ctrl r</code></td>\n</tr>\n<tr>\n<td align=\"left\">Help docs</td>\n<td align=\"left\"><code class=\"shiki-inline\" style=\"background: #2e3440; color: #d8dee9\">:help</code></td>\n</tr>\n</tbody>\n</table>\n","excerpt":"","description":"A list of common Vim Shortcuts that you will be using while getting started with Vim.","timeToRead":1,"author":{"id":"bryan-dugan","title":"bryan-dugan","path":"/author/bryan-dugan/"}}}]}}},"context":{}}