{"hash":"12b5578dc54220fd57fe3de6c6523b2c38efa4cb","data":{"posts":{"totalCount":9,"pageInfo":{"totalPages":2,"currentPage":2},"edges":[{"node":{"id":"159834fcad15c9ae571f0ef8845b7ed3","title":"Update Sourcetree Password on OSX","timeToRead":1,"datetime":"2018-05-18 00:00:00","content":"<p>Normally, I use Bitbucket and Sourcetree for versioning my code. If you've reset your password in Bitbucket or another Git client, you'll get an error or a prompt for your password every single time you try to connect to a project.</p>\n<p>In order to get Sourcetree to remember your password, you will have to delete your user profile, then re-connect to a repository. Below is a quick reference on how to get you back up and running.</p>\n<h2 id=\"navigate-to-the-sourcetree-settings-folder\"><a href=\"#navigate-to-the-sourcetree-settings-folder\" aria-hidden=\"true\"><span class=\"icon icon-link\"></span></a>Navigate to the Sourcetree Settings Folder</h2>\n<p>Start by Navigating to the following directory by right clicking Finder and clicking \"Go to Folder...\"</p>\n<pre class=\"shiki\" style=\"background-color: #0F111A\"><code><span style=\"color: #C792EA\">~</span><span style=\"color: #FFFFFF\">/Library/Application Support/SourceTree</span></code></pre>\n<h2 id=\"delete-the-users-profile\"><a href=\"#delete-the-users-profile\" aria-hidden=\"true\"><span class=\"icon icon-link\"></span></a><strong>Delete the User's Profile</strong></h2>\n<p>Find the account name in the list of files that you would like to reset the git password to. Once found, go ahead and delete that file.</p>\n<p><strong>Example:</strong> <code class=\"shiki-inline\" style=\"background: #2e3440; color: #d8dee9\">bdugan@STAuth-bitbucket.org</code> would be the Bitbucket user's password I would like to reset, so I would delete that file.</p>\n<h2 id=\"restart-sourcetree\"><a href=\"#restart-sourcetree\" aria-hidden=\"true\"><span class=\"icon icon-link\"></span></a><strong>Restart Sourcetree</strong></h2>\n<p>The next time you connect to a repository that uses that user ID, you will be prompted for a password. Enter your password to re-connect to the repository.</p>\n<p>Congrats! You have just updated your Sourcetree credentials, now get back to work!</p>\n","excerpt":"","description":"If you've reset your password in Bitbucket or another Git client, you'll get an error or a prompt for your password every single time you try to connect to a project.","path":"/update-sourcetree-password-on-osx/","cover":"","tags":[{"id":"development","title":"development","path":"/tag/development/"}],"author":{"id":"bryan-dugan","title":"bryan-dugan","path":"/author/bryan-dugan/"}}},{"node":{"id":"1b173e4776182889d021fd410febb7f4","title":"Setting up a new Mac for Development","timeToRead":2,"datetime":"2018-05-18 00:00:00","content":"<p>This is the Homebrew Cask setup of my personal development laptop. Feel free to use this as a starting point for a fresh install of any new OSX machine.</p>\n<h2 id=\"installing-homebrew\"><a href=\"#installing-homebrew\" aria-hidden=\"true\"><span class=\"icon icon-link\"></span></a>Installing Homebrew</h2>\n<p>Homebrew is a command line interface(CLI) package manager for OSX. In order to install Homebrew. Copy and paste the below command into your terminal to get started. If the below command doesn't work, take a look at the <a href=\"https://brew.sh\" target=\"_blank\" rel=\"nofollow noopener noreferrer\">Homebrew documentation</a>.</p>\n<pre class=\"shiki\" style=\"background-color: #0F111A\"><code><span style=\"color: #FFFFFF\">/usr/bin/ruby -e </span><span style=\"color: #89DDFF\">\"$(</span><span style=\"color: #C3E88D\">curl -fsSL https://raw.githubusercontent.com/Homebrew/install/master/install</span><span style=\"color: #89DDFF\">)\"</span></code></pre>\n<h3 id=\"add-homebrew-to-your-path\"><a href=\"#add-homebrew-to-your-path\" aria-hidden=\"true\"><span class=\"icon icon-link\"></span></a>Add Homebrew to your $PATH</h3>\n<p>In order for Homebrew to work properly, your <code class=\"shiki-inline\" style=\"background: #2e3440; color: #d8dee9\">bin</code> directory must first be added to your <code class=\"shiki-inline\" style=\"background: #2e3440; color: #d8dee9\">$PATH</code>.</p>\n<pre class=\"shiki\" style=\"background-color: #0F111A\"><code><span style=\"color: #82AAFF\">echo</span><span style=\"color: #FFFFFF\"> </span><span style=\"color: #89DDFF\">'</span><span style=\"color: #C3E88D\">export PATH=\"/usr/local/bin:$PATH\"</span><span style=\"color: #89DDFF\">'</span><span style=\"color: #FFFFFF\"> </span><span style=\"color: #C792EA\">&gt;&gt;</span><span style=\"color: #FFFFFF\"> </span><span style=\"color: #C792EA\">~</span><span style=\"color: #FFFFFF\">/.bash_profile</span></code></pre>\n<h2 id=\"installing-casks\"><a href=\"#installing-casks\" aria-hidden=\"true\"><span class=\"icon icon-link\"></span></a>Installing Casks</h2>\n<p>Casks are graphical user interface(GUI) applications that will be installed to your Mac's Applications folder. For a master list of all available Cask formulae, there is one available on the <a href=\"https://formulae.brew.sh/cask/\" target=\"_blank\" rel=\"nofollow noopener noreferrer\">official Brew website</a>. Use the lists I created as a starting point for installing your own applications and feel free to modify them to your liking. Also, be sure to hold onto your list in a Github Gist or cloud storage for safekeeping in case you need to set up a new computer.</p>\n<h3 id=\"design-applications\"><a href=\"#design-applications\" aria-hidden=\"true\"><span class=\"icon icon-link\"></span></a>Design Applications</h3>\n<p>Here is a list of all the design applications that I use.</p>\n<pre class=\"shiki\" style=\"background-color: #0F111A\"><code><span style=\"color: #FFFFFF\">brew cask install sketch</span>\n<span style=\"color: #FFFFFF\">brew cask install sketch-toolbox</span>\n<span style=\"color: #FFFFFF\">brew cask install adobe-creative-cloud</span>\n<span style=\"color: #FFFFFF\">brew cask install zeplin</span></code></pre>\n<h3 id=\"development-applications\"><a href=\"#development-applications\" aria-hidden=\"true\"><span class=\"icon icon-link\"></span></a>Development Applications</h3>\n<p>These are all the development related applications that I use.</p>\n<pre class=\"shiki\" style=\"background-color: #0F111A\"><code><span style=\"color: #FFFFFF\">brew cask install google-chrome</span>\n<span style=\"color: #FFFFFF\">brew cask install firefox</span>\n<span style=\"color: #FFFFFF\">brew cask install iterm2</span>\n<span style=\"color: #FFFFFF\">brew cask install visual-studio-code</span>\n<span style=\"color: #FFFFFF\">brew cask install postman</span>\n<span style=\"color: #FFFFFF\">brew cask install sequel-pro</span>\n<span style=\"color: #FFFFFF\">brew cask install filezilla</span>\n<span style=\"color: #FFFFFF\">brew cask install sourcetree</span></code></pre>\n<h3 id=\"regular-applications\"><a href=\"#regular-applications\" aria-hidden=\"true\"><span class=\"icon icon-link\"></span></a>Regular Applications</h3>\n<p>Here are some other handy applications that I use on a regular basis.</p>\n<pre class=\"shiki\" style=\"background-color: #0F111A\"><code><span style=\"color: #FFFFFF\">brew cask install vlc</span>\n<span style=\"color: #FFFFFF\">brew cask install google-backup-and-sync</span>\n<span style=\"color: #FFFFFF\">brew cask install spotify</span>\n<span style=\"color: #FFFFFF\">brew cask install slack</span>\n<span style=\"color: #FFFFFF\">brew cask install notion</span>\n<span style=\"color: #FFFFFF\">brew cask install 1password</span></code></pre>\n<h2 id=\"installing-homebrew-applications\"><a href=\"#installing-homebrew-applications\" aria-hidden=\"true\"><span class=\"icon icon-link\"></span></a>Installing Homebrew Applications</h2>\n<p>These are the most common development CLI applications that you'll be using with whatever development server you'll choose to use. <strong>Note:</strong> These are brew formulae, NOT casks, so be sure to not use cask when installing the applications.</p>\n<pre class=\"shiki\" style=\"background-color: #0F111A\"><code><span style=\"color: #FFFFFF\">brew install php</span>\n<span style=\"color: #FFFFFF\">brew install composer</span>\n<span style=\"color: #FFFFFF\">brew install mysql</span>\n<span style=\"color: #FFFFFF\">brew install yarn</span></code></pre>\n<h2 id=\"laravel-valet-as-a-local-development-server\"><a href=\"#laravel-valet-as-a-local-development-server\" aria-hidden=\"true\"><span class=\"icon icon-link\"></span></a>Laravel Valet as a Local Development Server</h2>\n<p>Laravel Valet is what I use as my local development server. I use it, because it's easy to setup and doesn't require running a Vagrant box or anything else too complicated. It turns your Mac into a development server by running Nginx in the background as you start your computer. My personal favorite feature, is that you can run <code class=\"shiki-inline\" style=\"background: #2e3440; color: #d8dee9\">valet park</code> in your local development directory, and any folder in that directory becomes a <code class=\"shiki-inline\" style=\"background: #2e3440; color: #d8dee9\">.test</code> domain. So if you have a folder called <code class=\"shiki-inline\" style=\"background: #2e3440; color: #d8dee9\">my-website</code>, open your favorite browser and type in <code class=\"shiki-inline\" style=\"background: #2e3440; color: #d8dee9\">my-website.test</code> and you'll be directed to your index file in the <code class=\"shiki-inline\" style=\"background: #2e3440; color: #d8dee9\">my-website</code> folder.</p>\n<p>To set up Valet, I highly recommend <a href=\"https://medium.com/@jalendport/running-craft-cms-3-on-laravel-valet-6df61e5193fd\" target=\"_blank\" rel=\"nofollow noopener noreferrer\">Jalen Davenport's absolutely wonderful guide</a> on how to set up Valet. It's geared towards Craft CMS development, but the basic install is all the same for whatever type of web development you'll be doing.</p>\n","excerpt":"","description":"This is the Homebrew Cask setup of my personal development laptop. Feel free to use this as a starting point for a fresh install of any new OSX machine.","path":"/setting-up-a-new-mac-for-development/","cover":"","tags":[{"id":"mac osx","title":"mac osx","path":"/tag/mac%20osx/"}],"author":{"id":"bryan-dugan","title":"bryan-dugan","path":"/author/bryan-dugan/"}}},{"node":{"id":"935539c5918e4a9417c27bb2e299b640","title":"Serverpilot Server Configuation","timeToRead":1,"datetime":"2018-05-18 00:00:00","content":"<p>This is a list of all the configuration changes I made to my Digital Ocean/ServerPilot server.</p>\n<h2 id=\"installed-applications\"><a href=\"#installed-applications\" aria-hidden=\"true\"><span class=\"icon icon-link\"></span></a>Installed Applications</h2>\n<h3 id=\"auto-mysql-backup\"><a href=\"#auto-mysql-backup\" aria-hidden=\"true\"><span class=\"icon icon-link\"></span></a>Auto MySQL Backup</h3>\n<pre class=\"shiki\" style=\"background-color: #0F111A\"><code><span style=\"color: #FFFFFF\">apt-get install automysqlbackup</span></code></pre>\n<h3 id=\"imagick\"><a href=\"#imagick\" aria-hidden=\"true\"><span class=\"icon icon-link\"></span></a>Imagick</h3>\n<p><strong>Note:</strong> Replace the PHP version 7.3 with whatever version of PHP you are using.</p>\n<pre class=\"shiki\" style=\"background-color: #0F111A\"><code><span style=\"color: #FFFFFF\">sudo pecl7.3-sp install imagick</span></code></pre>\n<p>Select autodetect from settings</p>\n<p><strong>Copy installation to PHP 7.3</strong></p>\n<p><strong>Note:</strong> Replace 7.3 with whatever version of PHP you are using.</p>\n<pre class=\"shiki\" style=\"background-color: #0F111A\"><code><span style=\"color: #FFFFFF\">sudo bash -c </span><span style=\"color: #89DDFF\">\"</span><span style=\"color: #C3E88D\">echo extension=imagick.so &gt; /etc/php7.3-sp/conf.d/imagick.ini</span><span style=\"color: #89DDFF\">\"</span></code></pre>\n<p><strong>Restart PHP</strong></p>\n<p><strong>Note:</strong> Replace 7.3 with whatever version of PHP you are using.</p>\n<pre class=\"shiki\" style=\"background-color: #0F111A\"><code><span style=\"color: #FFFFFF\">sudo service php7.3-fpm-sp restart</span></code></pre>\n<h3 id=\"zip--unzip\"><a href=\"#zip--unzip\" aria-hidden=\"true\"><span class=\"icon icon-link\"></span></a>Zip / Unzip</h3>\n<pre class=\"shiki\" style=\"background-color: #0F111A\"><code><span style=\"color: #FFFFFF\">apt-get install zip unzip</span></code></pre>\n<h2 id=\"change-php-settings-per-application\"><a href=\"#change-php-settings-per-application\" aria-hidden=\"true\"><span class=\"icon icon-link\"></span></a>Change PHP Settings per Application</h2>\n<p>To change PHP.ini settings in each app, create a file called <code class=\"shiki-inline\" style=\"background: #2e3440; color: #d8dee9\">.user.ini</code> and place in your public folder</p>\n<pre class=\"shiki\" style=\"background-color: #0F111A\"><code><span style=\"color: #FFFFFF\">vim apps/APPNAME/public/.user.ini</span></code></pre>\n<pre class=\"shiki\" style=\"background-color: #0F111A\"><code><span style=\"color: #8F93A2\">memory_limit</span><span style=\"color: #FFFFFF\"> </span><span style=\"color: #C792EA\">=</span><span style=\"color: #FFFFFF\"> 512M</span>\n<span style=\"color: #8F93A2\">max_execution_time</span><span style=\"color: #FFFFFF\"> </span><span style=\"color: #C792EA\">=</span><span style=\"color: #FFFFFF\"> </span><span style=\"color: #F78C6C\">300</span>\n<span style=\"color: #8F93A2\">upload_max_filesize</span><span style=\"color: #FFFFFF\"> </span><span style=\"color: #C792EA\">=</span><span style=\"color: #FFFFFF\"> 512M</span></code></pre>\n<h2 id=\"change-mysql-default-settings\"><a href=\"#change-mysql-default-settings\" aria-hidden=\"true\"><span class=\"icon icon-link\"></span></a>Change MySQL Default Settings</h2>\n<pre class=\"shiki\" style=\"background-color: #0F111A\"><code><span style=\"color: #FFFFFF\">vim /etc/mysql/my.cnf</span></code></pre>\n<p><strong>Change max_allowed_packet setting from 16M to 32M</strong></p>\n<p><strong>Note:</strong> There was two places that need changing in the <code class=\"shiki-inline\" style=\"background: #2e3440; color: #d8dee9\">my.cnf</code> file</p>\n<code class=\"shiki\" style=\"background: #2e3440; color: #d8dee9\">max_allowed_packed = 32M</code>\n<p><strong>Restart MySQL for changes to take effect</strong></p>\n<pre class=\"shiki\" style=\"background-color: #0F111A\"><code><span style=\"color: #FFFFFF\">sudo service mysql restart</span></code></pre>\n","excerpt":"","description":"A list of all the configuration changes I made to my Digital Ocean/ServerPilot server.","path":"/serverpilot-server-configuation/","cover":"","tags":[{"id":"servers","title":"servers","path":"/tag/servers/"}],"author":{"id":"bryan-dugan","title":"bryan-dugan","path":"/author/bryan-dugan/"}}}]}},"context":{}}