{"hash":"ec9eb72e718cdf729c98a919fbbf1e842a2ca5ad","data":{"posts":{"totalCount":26,"pageInfo":{"totalPages":5,"currentPage":5},"edges":[{"node":{"id":"adefb9228f7969f476729a991c1eae54","title":"Vim Cheatsheet","timeToRead":1,"datetime":"2016-11-19 00:00:00","content":"<p>A list of common Vim Shortcuts that you will be using while getting started with Vim.</p>\n<blockquote>\n<p><strong>Note:</strong> Vim is case sensitive. For Example, if the command is <code class=\"shiki-inline\" style=\"background: #2e3440; color: #d8dee9\">V</code> you would type <code class=\"shiki-inline\" style=\"background: #2e3440; color: #d8dee9\">shift</code> + <code class=\"shiki-inline\" style=\"background: #2e3440; color: #d8dee9\">v</code>.</p>\n</blockquote>\n<h2 id=\"the-two-main-modes\"><a href=\"#the-two-main-modes\" aria-hidden=\"true\"><span class=\"icon icon-link\"></span></a>The two main modes</h2>\n<p>In Vim there are two main modes. Command mode, and insert mode. Command mode lets you modify and select text, where insert mode allows you to type new text.</p>\n<table>\n<thead>\n<tr>\n<th align=\"left\">Action</th>\n<th align=\"left\">Command</th>\n</tr>\n</thead>\n<tbody>\n<tr>\n<td align=\"left\">Text mode</td>\n<td align=\"left\"><code class=\"shiki-inline\" style=\"background: #2e3440; color: #d8dee9\">i</code></td>\n</tr>\n<tr>\n<td align=\"left\">Command mode</td>\n<td align=\"left\"><code class=\"shiki-inline\" style=\"background: #2e3440; color: #d8dee9\">esc</code></td>\n</tr>\n</tbody>\n</table>\n<h2 id=\"basic-shortcuts\"><a href=\"#basic-shortcuts\" aria-hidden=\"true\"><span class=\"icon icon-link\"></span></a>Basic shortcuts</h2>\n<table>\n<thead>\n<tr>\n<th align=\"left\">Action</th>\n<th align=\"left\">Command</th>\n</tr>\n</thead>\n<tbody>\n<tr>\n<td align=\"left\">Select character</td>\n<td align=\"left\"><code class=\"shiki-inline\" style=\"background: #2e3440; color: #d8dee9\">v</code></td>\n</tr>\n<tr>\n<td align=\"left\">Select line</td>\n<td align=\"left\"><code class=\"shiki-inline\" style=\"background: #2e3440; color: #d8dee9\">V</code></td>\n</tr>\n<tr>\n<td align=\"left\">Cut</td>\n<td align=\"left\"><code class=\"shiki-inline\" style=\"background: #2e3440; color: #d8dee9\">d</code></td>\n</tr>\n<tr>\n<td align=\"left\">Copy</td>\n<td align=\"left\"><code class=\"shiki-inline\" style=\"background: #2e3440; color: #d8dee9\">y</code></td>\n</tr>\n<tr>\n<td align=\"left\">Paste before</td>\n<td align=\"left\"><code class=\"shiki-inline\" style=\"background: #2e3440; color: #d8dee9\">P</code></td>\n</tr>\n<tr>\n<td align=\"left\">Paste after</td>\n<td align=\"left\"><code class=\"shiki-inline\" style=\"background: #2e3440; color: #d8dee9\">p</code></td>\n</tr>\n<tr>\n<td align=\"left\">Move around editor (alternatively, you can use the arrow keys)</td>\n<td align=\"left\"><code class=\"shiki-inline\" style=\"background: #2e3440; color: #d8dee9\">h</code>,<code class=\"shiki-inline\" style=\"background: #2e3440; color: #d8dee9\">j</code>,<code class=\"shiki-inline\" style=\"background: #2e3440; color: #d8dee9\">k</code>,<code class=\"shiki-inline\" style=\"background: #2e3440; color: #d8dee9\">l</code></td>\n</tr>\n</tbody>\n</table>\n<h3 id=\"word-movement\"><a href=\"#word-movement\" aria-hidden=\"true\"><span class=\"icon icon-link\"></span></a>Word Movement</h3>\n<table>\n<thead>\n<tr>\n<th align=\"left\">Action</th>\n<th align=\"left\">Command</th>\n</tr>\n</thead>\n<tbody>\n<tr>\n<td align=\"left\">Beginning of next word</td>\n<td align=\"left\"><code class=\"shiki-inline\" style=\"background: #2e3440; color: #d8dee9\">w</code></td>\n</tr>\n<tr>\n<td align=\"left\">Last letter of word</td>\n<td align=\"left\"><code class=\"shiki-inline\" style=\"background: #2e3440; color: #d8dee9\">e</code></td>\n</tr>\n<tr>\n<td align=\"left\">Beginning of previous word</td>\n<td align=\"left\"><code class=\"shiki-inline\" style=\"background: #2e3440; color: #d8dee9\">b</code></td>\n</tr>\n<tr>\n<td align=\"left\">Move to matching parentheses or brackets</td>\n<td align=\"left\"><code class=\"shiki-inline\" style=\"background: #2e3440; color: #d8dee9\">%</code></td>\n</tr>\n<tr>\n<td align=\"left\">Move to the beginning of a line</td>\n<td align=\"left\"><code class=\"shiki-inline\" style=\"background: #2e3440; color: #d8dee9\">0</code></td>\n</tr>\n<tr>\n<td align=\"left\">Move to the end of the line</td>\n<td align=\"left\"><code class=\"shiki-inline\" style=\"background: #2e3440; color: #d8dee9\">$</code></td>\n</tr>\n<tr>\n<td align=\"left\">Find next instance of a word</td>\n<td align=\"left\"><code class=\"shiki-inline\" style=\"background: #2e3440; color: #d8dee9\">/ul</code></td>\n</tr>\n<tr>\n<td align=\"left\">Go to the beginning of a file</td>\n<td align=\"left\"><code class=\"shiki-inline\" style=\"background: #2e3440; color: #d8dee9\">gg</code></td>\n</tr>\n<tr>\n<td align=\"left\">Go to the end of a file</td>\n<td align=\"left\"><code class=\"shiki-inline\" style=\"background: #2e3440; color: #d8dee9\">G</code></td>\n</tr>\n<tr>\n<td align=\"left\">Go to line number</td>\n<td align=\"left\"><code class=\"shiki-inline\" style=\"background: #2e3440; color: #d8dee9\">#gg</code></td>\n</tr>\n<tr>\n<td align=\"left\">Search</td>\n<td align=\"left\"><code class=\"shiki-inline\" style=\"background: #2e3440; color: #d8dee9\">/</code></td>\n</tr>\n<tr>\n<td align=\"left\">Search next</td>\n<td align=\"left\"><code class=\"shiki-inline\" style=\"background: #2e3440; color: #d8dee9\">N</code></td>\n</tr>\n<tr>\n<td align=\"left\">Search previous</td>\n<td align=\"left\"><code class=\"shiki-inline\" style=\"background: #2e3440; color: #d8dee9\">n</code></td>\n</tr>\n<tr>\n<td align=\"left\">Insert new line after</td>\n<td align=\"left\"><code class=\"shiki-inline\" style=\"background: #2e3440; color: #d8dee9\">o</code></td>\n</tr>\n<tr>\n<td align=\"left\">Insert new line before</td>\n<td align=\"left\"><code class=\"shiki-inline\" style=\"background: #2e3440; color: #d8dee9\">O</code></td>\n</tr>\n<tr>\n<td align=\"left\">Remove character</td>\n<td align=\"left\"><code class=\"shiki-inline\" style=\"background: #2e3440; color: #d8dee9\">x</code></td>\n</tr>\n<tr>\n<td align=\"left\">Replace character</td>\n<td align=\"left\"><code class=\"shiki-inline\" style=\"background: #2e3440; color: #d8dee9\">r</code></td>\n</tr>\n<tr>\n<td align=\"left\">Delete character</td>\n<td align=\"left\"><code class=\"shiki-inline\" style=\"background: #2e3440; color: #d8dee9\">d</code></td>\n</tr>\n<tr>\n<td align=\"left\">Delete word / etc</td>\n<td align=\"left\"><code class=\"shiki-inline\" style=\"background: #2e3440; color: #d8dee9\">d</code> + word</td>\n</tr>\n<tr>\n<td align=\"left\">Repeat previous command</td>\n<td align=\"left\"><code class=\"shiki-inline\" style=\"background: #2e3440; color: #d8dee9\">.</code></td>\n</tr>\n<tr>\n<td align=\"left\">Save</td>\n<td align=\"left\"><code class=\"shiki-inline\" style=\"background: #2e3440; color: #d8dee9\">:w</code></td>\n</tr>\n<tr>\n<td align=\"left\">Quit</td>\n<td align=\"left\"><code class=\"shiki-inline\" style=\"background: #2e3440; color: #d8dee9\">:q</code></td>\n</tr>\n<tr>\n<td align=\"left\">Quit without saving</td>\n<td align=\"left\"><code class=\"shiki-inline\" style=\"background: #2e3440; color: #d8dee9\">:q!</code></td>\n</tr>\n<tr>\n<td align=\"left\">Undo</td>\n<td align=\"left\"><code class=\"shiki-inline\" style=\"background: #2e3440; color: #d8dee9\">u</code></td>\n</tr>\n<tr>\n<td align=\"left\">Redo</td>\n<td align=\"left\"><code class=\"shiki-inline\" style=\"background: #2e3440; color: #d8dee9\">ctrl r</code></td>\n</tr>\n<tr>\n<td align=\"left\">Help docs</td>\n<td align=\"left\"><code class=\"shiki-inline\" style=\"background: #2e3440; color: #d8dee9\">:help</code></td>\n</tr>\n</tbody>\n</table>\n","excerpt":"","description":"A list of common Vim Shortcuts that you will be using while getting started with Vim.","path":"/vim-cheatsheet/","cover":{"type":"image","mimeType":"image/png","src":"/assets/static/vim-cheatsheet.23f9006.34b9b2f32f027bbb54b4f4a0a1169c85.png","size":{"width":2500,"height":1488},"sizes":"(max-width: 2500px) 100vw, 2500px","srcset":["/assets/static/vim-cheatsheet.1b91758.34b9b2f32f027bbb54b4f4a0a1169c85.png 480w","/assets/static/vim-cheatsheet.3df3210.34b9b2f32f027bbb54b4f4a0a1169c85.png 1024w","/assets/static/vim-cheatsheet.0b85c65.34b9b2f32f027bbb54b4f4a0a1169c85.png 1920w","/assets/static/vim-cheatsheet.23f9006.34b9b2f32f027bbb54b4f4a0a1169c85.png 2500w"],"dataUri":"data:image/svg+xml,%3csvg fill='none' viewBox='0 0 2500 1488' xmlns='http://www.w3.org/2000/svg' xmlns:xlink='http://www.w3.org/1999/xlink'%3e%3cdefs%3e%3cfilter id='__svg-blur-8ca5fd5b90c45b4c641bc66f19a66758'%3e%3cfeGaussianBlur in='SourceGraphic' stdDeviation='40'/%3e%3c/filter%3e%3c/defs%3e%3cimage x='0' y='0' filter='url(%23__svg-blur-8ca5fd5b90c45b4c641bc66f19a66758)' width='2500' height='1488' xlink:href='data:image/png%3bbase64%2ciVBORw0KGgoAAAANSUhEUgAAAEAAAAAmCAYAAAB0xJ2ZAAAACXBIWXMAAAsSAAALEgHS3X78AAAOUElEQVRo3tVZeVRUV5rnnOlOouAWYhuNKPuiMRhHQVBRtKMSUIFiqRUEikXEdUQxHRWMO6JGowiyqq0EQVncoBY02sYtaY2xxUST7piOmZhk%2bvSZnEllzPvNd%2b%2brKl8VVbh07Jn543fevfd999b7fvfb7i0XN73aZI9e7SpTr7OpJvdFkSbNznxT1fdtpl13mk27/9piBevX/k1nSt612BS2KMFUdvcoHy%2bVynzZbKr89qSp6GKFyTthgsl3u9zkeorW16lsfq%2b3Tm161qgw%2bTdoTcfuvm86/9%2bdpvzzu00htTmmNN1Gk9ZQbFKeWGMK3z/XNLo22xSydw4hxwZsvOrPJ0wXfuo0betsNEXWLTSl6zfxuUnHCrnMGD7Xdp5LL70aXaBTgQjA88unQLYhF6Qoyv7aivKvjnKwdvW3bSgw7EDcljzM2JCD3V%2b2YM/dY1YZi1zN9%2b14o%2bMdeMaPh2%2bpCkQArW/7e70JzxqVCGzQ4tS3H%2bIaPsf6K7/HiPI0TKlbhLT2DcgybIbq%2bBqM35eHkJochNXOwVgJ2NjBO0Zcx59Refs4Xq3UYlp9PrS6TXxucmsRnxNKctJ5Lm56lWAPsgCh15kUoc/WaGFcnkzY8/UxgZSxgpQTSGFhmX67sO2TekG2dZ6w%2b04LH7fKfdXKx2r/QyekVi4XPJMiBK9ajdDTSGvrbH%2bPLEAgCxACD2mFjnsfCB/e/1TYebNJiG4sEMZUZwmRBxYKs9s2CKSIQCQI4/bNFUJqsgVSwArWP3BHL1y5f0s4eMcgvN6wTPjXqkxhav0SIUO3ScjSbxaSWgu5LJEgPmtzBKcW4NahQZ8jcnjJI1D0/h5U0Y6zXba3gu23G6Aqy7daCHtKUU5WEbZABv%2bcKAw8nAIiQLQwqQXomAUoQASACMCH92/hnc4jSD25HgktK0GKgEgAkQBShFsCkYCQ6uwHFkDtA3cMuHL/NlmCAentGzGjcTlGVWZi6rtLkMEsgeYSCVzeYgnOXaCdcCYVFAcQszIDNeQGtKM2ijKT3367EYuPbeZtq9L0vvSLZuz9mx4LWzdhSFw4hm9QoE%2bbGrTjDyXgjz/fQsnH73JFsw0liG9aYUuCQUJCTbYNAVeJgN9/oSe32YhMfbGZBOYOjklwSICbxAr6khUMloVj/uH12Pd3A1dMGg%2bYVez6S5PN7jOZ6u/aUHKjDsNTX0PQnNcxdL/Guvtudr8nJcD4zWV8RDHgzQsVmHxwEVc2kz46vtkZCXmcBBYDmOLXfv4cZZ%2b2Ysbh5VxZLZEQYybB3hLCurMA/pFkBW7vpeD50lj4xk3Avx0vwV4igWICtwamPANTmrfNFsJ2fgspPyZ3FnzUkzFsu3kty%2b53YwGcAOEzrLxYhZfLUrkiWl2xSIK9JUjcYXRVFrcAkYAWLsfkM60kFNhaAhGY0LLKCQEWN5CQ4L59Jjxjx0G5YzHe/qwBFNx4hGdxgKHmu3Y%2bxlxhYWsx33mm/IjNKvQ7StHfINn9RyTglT3p3EwpGD4gwYklhO/Nxf6/6HBNEC1gdHUWnxvX9KaEhAeWwPosxnRLgPixZhLOEAn7EjFINR7B6mmQleRx3y98vxxFZK7LjTuQUrkcY%2bfHY2hsOJl9NIJ2qNHvmEV5tUPlnRGwghOQxhUbQ/4d3dA9CYpjq1H3pREf/fwZJ4Cyhzk9ZjskYTqlSM2Jtd0QICXBYgmnNejXpsHATbPgkT4JQ%2bPHwVs2Ab4JEfCMGwdKdfDLmY5hm%2bTwOKjh8x8or3KofPcWIBLAFGEKxUgtQeIOaUQCy/dHvj7Dg2C52QIe1Aj2JBTwuSzGdE%2bAZcekMcGgFuOCPhUvNqjhUamAZymlyz0qDD2gwYCWFK4QC3gWpZ3t/OMQIJKQ3cUdRptJSG1bj6avzzokgLmCIxJY3Hg4AfYkmFMkU861Q80rO44OUWlXo22ws87Rqf9hAiwkcEvQ27rDpAML0Hj3PVz9%2bbY1BkjnOSPh0QjoQoQkmltqBp0t3CTyD1vXnoCrjIBLVRhZkcEjfBiRYAEjhCnD0xz5PqsTZM0rucI8DVIQZBbAlA03y4dJnowMRlqOcQvFD0dB0P7jnzLcJAQEmAm4RvX8GxRY/XepeE0fTNnAiop0IiadzgmzMYV8WE2BjClCpS/2fyFmgdKbzZRCZ3MCmbxl7khzm50xmLz8aJEdAY52758AqwU0iJXghR9voOrWcRScK0PhpWqscoIVFyux5eN67KSymZXObd9fwiVTJwXDs/xd1zlV/Mnci61bfK2uKwGW1OdKwc7VqBaDnvEpwLK%2bXiTg1/pkjDo2DwWHtmLU0gSEFsixrHkb/oQ7VN/fIre4zV3DHuzcQIcnjgumGzj3X3/CxZ9uOpSVgsWZ8z912hJg2XmmvHuzCj67lfDZSdj1y8OX1vWsUKHPCTFGPGtQYFhDFqLXZMN7fhQ8sn6LlNoVOPv3j6D/90sw3LtsBXMTa5ssxoIOOkqz43THtx/YyDsCs7ST31xw4gK0M35vKxCk/C18kybCL3mSQ/jLIxGgmMzB2n6ELmNO5rJ1h6dHYWiNCj07xN/sf0iJoHkxCFowAwHzY%2bBNBPk3auF/KMMGfg0ZXcYeFwH1GfBtzHDgAuao7V%2bcDJ%2bECfCUjYOXbLxDvDQzFC9Gj%2bZ4KSYEXjPD%2bdhA89hgajub60knRH/lZKoflOh5yvzblE36NsrR7xCBnj31Sh4berQruIU8R2D9XkcVeMbc5jA8Gdh6jgkgF/DbnAzfxInwShgPbyLCHkNJgUkL5ZCtzkXcimxEFWbg1dVJiJwvR2xhNuKL5iBiQTKXczTfk6rIANUUeFoIaBeJ5/GhQ3yy2MCeQ8hKBh5Sw7MlAy%2b0qBGwXYmBR1PR96QafU88SKVPAqcE%2bDMCqMRlu2X/8T6JEXhpRijk6xfgDz9cx4X/vI7kttX4l5OJ0B5ei0s/dOKi8AmSNy8guRAu74wALykBuq71BXvnTbHo5W1qBNdnYwBVnyM3aTDi3Sweo/o3igXZo9QbjvDYBLA%2bc40hcWEITo3CybvnKQBdhschDTwaZ2P/9RO4/ONNzN6%2bFANjxliVt1/HIQEOahL2zrNcgTHrUhBcl41eJ5UYWa1F6J4sjFirwPPspGm0dV9uSY9IyJMRQEp5zBqLiLlJ0H9zCe3fXcTU2gU40NmO66bPkKpbB981sfCPj7C60GMTYLaCnrS7g2uUGLMxFcPrM8lvlXz3x%2b7QIrBYgd7ttqdMNzsiHkbGE7mAF538/FOmIObgErR9cxFt9y7gyE0jrvz4KdJPrMOvmmV48XIOXilK5IHRO3HCo7mAo5RMu%2bvepMLoYiKA0uSzp8gdGrIRujkNQyqVnCCp8uzZ15DC2646pXXMGQlPRAAPgpQdQlcocPzu%2bzhPxce5Hz7G74yleOaIDL86JUff0lnwVEbw47JXwuMTID1H9G6hGoF2mx2O3FrlGFGRhuDVCrjXy3lBZZFjCrsbZmP8%2bTeorYJ7Rxp66zW/rAVIXSA0fSbavjqPS/c/QZGxHNGHCxBvKIL2VDHm7V2DcbkyDCY5n8QncwHLEXzo2jgELZ6FoPxYBCyj55JYDFs0E540Lp5M1dZDGovsQ45n8NQ5qX0pBhjS0ZOI%2bUVdgAVBj9gwhGTN4hVVXvNGxLb8Dgs%2bKMXCoyVYvHc9Clt2ImweETBzbLdpsHsLUKMH1QJBdRmYuicPkZW5iCyfw59TK/IQWJfO3/Ojtpkwpmy/thS4NiagX%2bFrDgNkFwKsL80LWQngdcAEhwowYgKo0ovMV/FcH1KkxKiydIzKjEGwNhpj5sTCJynC4Vxvs0U4I8BNciZhQS9gXyqmlGRi4jYtIkrSMXGrFlO2ZMJvfyp6GJTWuwam/GjjIsSeLkJ08zI68S3BgNMZ6NnejQW42UVPS9%2bPVYLxtFOx4TzosQtRKdgYu/sb9PpoeFHfg3baIz4cHjGh8JgxFoOpMux27qww%2bFO5zAuhDvNtk%2bT33cx1gOtpDQa/LcPw7GheJg/Li%2bFP1n9pR4L4V1u7aC09DSpKj5mI3ZCLmM2ErXMxqDWVjzu7kHGxPZubwSxgixxB2VEIyJ7eDaL4nX9AThQCGWgs0NLOiep2nj89h%2bfGcAvocUrt9KKFETCoJA4BadP4HP%2bs6fzJ%2boO2xhEBGi7HfJ/5fcbVbSj9vAlbbx3Cllv18H9vLp6j8d46x0d8F1Zqsrp46JkcLL1RwZFPeONKBd68Uok3rz5F/LESy69WYEnnHhTcqETuxzvRpyPFfLWm5heqPc5q8OKOeATOniYqnymSwPoDdsnQ44yGyzE9fq2XI%2b/Wbrz7vRHV99pQee8E/M7l4RkaZ%2b9dHcDlBcqxzzcrMbgxFZG180XsnY9JHPMwad88THyKmLRP/M3JBPbPb/8jYt5/wQx3qv0HHFDAP38mAumEGEAnxUByAb9lM/GbOkqFLaJc/yZKl4fliDAsxeqrNXiLkHNhGwY0aeB%2bWGldzx4urxYpwDCykPLsqmQrRrwlx8vraKxIjldWJtu8e3qQw/I9VtB3jXyLyt81St62jlGfjVvHOKhIWpWE4EI5Rpnbr6xVIni9CiNXK7uuTXDxLlfCi%2bDNoYJ3mQpedA4PXJuEEfnx8Nsq5302zt8/dShtwL%2btTIRX%2bQNIx6yy1PfhOojjPvTNw1YlYPhyGXzeUfCrez5PMseFRWAp2LX2c%2bco8q6bhWGK1/BCbSJ6/EHDx%2b1l/6%2bCX9GfEmOIV340/LXT0KdJTvFCvLqXyrp0iYxtYuT1WEfVlnoqflOdaI20/8yL0n8I5rTYm3TxXkpxIysK/RrEQGivh4ujyVIC%2bjMCTv8/I0BSRnvnMwKm8xsmt46uqbDr/wKMgPecEPAEFw7/K3gYARLZ/wFy/pHvJXQ1%2bAAAAABJRU5ErkJggg==' /%3e%3c/svg%3e"},"tags":[{"id":"vim","title":"vim","path":"/tag/vim/"},{"id":"development","title":"development","path":"/tag/development/"}],"author":{"id":"bryan-dugan","title":"bryan-dugan","path":"/author/bryan-dugan/"}}},{"node":{"id":"e85b8e2d598ef5b297f9fee5627b6e18","title":"Creating Symlinks in OSX","timeToRead":1,"datetime":"2015-11-12 00:00:00","content":"<p>If you are just getting started with using the Terminal in OSX, you may have trouble getting to common things like your hosts file. It is possible to create a Symlink (symbolic link) or shortcut in Terminal to get to that specific folder extremely quickly.</p>\n<p>Use the following formula to create a symlink</p>\n<pre class=\"shiki\" style=\"background-color: #0F111A\"><code><span style=\"color: #FFFFFF\">ln -s /any/file/on/the/disk shortcut-name</span></code></pre>\n<p><strong>Example:</strong> Creating a symlink to your hosts file.</p>\n<pre class=\"shiki\" style=\"background-color: #0F111A\"><code><span style=\"color: #FFFFFF\">ln -s /etc/hosts hosts-shortcut</span></code></pre>\n<p>Now to quickly open your hosts file all you have to do is use the symlink you created. In this example, we are opening our hosts file with the vim text editor.</p>\n<pre class=\"shiki\" style=\"background-color: #0F111A\"><code><span style=\"color: #FFFFFF\">sudo vim hosts-shortcut</span></code></pre>\n<p><strong>Note:</strong> You must run sudo to modify your hosts file.</p>\n","excerpt":"","description":"It is possible in OSX to create a Symlink (symbolic link) or shortcut in Terminal to get to that specific folder extremely quickly.","path":"/creating-symlinks-in-osx/","cover":{"type":"image","mimeType":"image/png","src":"/assets/static/creating-symlinks-in-osx.7d979f5.f5d180f67091e1ec6f52bcb2c3d0520f.png","size":{"width":2400,"height":1260},"sizes":"(max-width: 2400px) 100vw, 2400px","srcset":["/assets/static/creating-symlinks-in-osx.1b91758.f5d180f67091e1ec6f52bcb2c3d0520f.png 480w","/assets/static/creating-symlinks-in-osx.3df3210.f5d180f67091e1ec6f52bcb2c3d0520f.png 1024w","/assets/static/creating-symlinks-in-osx.0b85c65.f5d180f67091e1ec6f52bcb2c3d0520f.png 1920w","/assets/static/creating-symlinks-in-osx.7d979f5.f5d180f67091e1ec6f52bcb2c3d0520f.png 2400w"],"dataUri":"data:image/svg+xml,%3csvg fill='none' viewBox='0 0 2400 1260' xmlns='http://www.w3.org/2000/svg' xmlns:xlink='http://www.w3.org/1999/xlink'%3e%3cdefs%3e%3cfilter id='__svg-blur-b25d441c62335673be6796ae54542b8b'%3e%3cfeGaussianBlur in='SourceGraphic' stdDeviation='40'/%3e%3c/filter%3e%3c/defs%3e%3cimage x='0' y='0' filter='url(%23__svg-blur-b25d441c62335673be6796ae54542b8b)' width='2400' height='1260' xlink:href='data:image/png%3bbase64%2ciVBORw0KGgoAAAANSUhEUgAAAEAAAAAiCAYAAADvVd%2bPAAAACXBIWXMAAAsSAAALEgHS3X78AAAFkklEQVRo3tVZ%2b1MTVxSOyKOWJn3YAuUREkJ4NCAgFETlEUDBF8irCQhCBOsI1jKOSisyApuNCrRYZ2qnnXbsD532z/x6791suPvehE0cfzhz7%2b6ee3P3u%2bf7zrkbV5E3iHSssKoWxf3z8Nx4Cc83W8S24YnsWJiBj62xDhv/m2T9rnReXGoDEggDi/DM7cEdFYjF4Z4RJaP9qNzGldcz6vtx7X3WtzOPqH1uOY%2bg8knYB0AJQi0KK2sICAsEhF24CZraxcYJygJ3LWgBoM9TPoIhSIp5WF/tY2ceQXc9rkwooABhMJYEQTj8cY2le9/KMh2nHEtpkDYAhiDc2NXsqEexK%2bq%2b9FyzK5q%2bap6IoPNCRr/FXUf0fTICQANChR/FQ0tSJGh%2bnNMGwjldfqt4qctd3s%2bWBiSc1wDzSPAnhTGpCRGjnRNUu6buK33Ufm49v3TmkdeR9DsSAMaasJcURic4m107MgBaEAIkEpIgkJxrmgVSOyaa%2bNjIJpp57GSBeGZZwD4Ii1x24PTAUM2N06DbUCjjBiJrVHMI2YkAcxDUdIjrKv27SIOOaIBtOugVSxFBu7u2IsAJKknZwXEAjOuElyaha8ZdHgDRUAPSmycLGmCZIgdvqTThXWWHLFMgPRAEBzmfmU9WATA/O/DFkngYxlbpK2KVBm3Ok6RM1gHQP0XGTLKD6JDqi7krhDIDgSub3/dKMPMUuSBlBw0d1Ke4nVQUeHROg56UD3/uEDWnRa1PjgHgQSiSIyG8oKSDaQUnWoS3RRqMGtQBqUWpF6lzbdZP209RLFl9VMliGqQL%2boC0BZWkrQ4emlfu1zEr8gY1LT9evs/7p%2b7JfW5sod5HFXqA0k2TgrKiM/ThqSJoP5Coj8PybuR96Ye7tpG1rlIfXGU%2bqU9aV0k1MwqQ6wsvjpfXsGvaUiv2NyCv3I/jFeR%2baTXzoW0B2V02psTL5sonz4%2bx%2baW5NCDQjyqyJhh96OAWb6r6EcHg46sSSBfdDbqg8OQYVn%2b4h5aBMLztnQh0daO8pR3e01%2bjY/gCrs1H0H5hCI09PShrbkNTfz8%2bCjTg8uw0Hm49QP258/ikLoRg91mcCodR03kG08tz6B27yubqHLmIvvFrKAm1oOF8DwOtQE0NVizFdCpGp%2b1QIF0nfHVsx9aFR%2bi6NIyV9VXcfbyKN2/3sJFYx%2b6vAn77ex8/xh9je/8pdn7aJPYUiV%2b2MHoziqHpcey/ibNxW3sbeLa7gVd/PGd%2b1Ef4eZONe/F6G3/9%2bwp3Hq3gz38OGCg0uijFTIsli%2b%2bF6VeGyrEuuoBjZX40kl1ZfnAHg1PXUdnWgf7xUXRfuYTx2CwDpvf6VYQnRhHq7cXIzCQOfk%2bwtu7sOcS%2bv43h6CQDLtTXR8aN4Ayx4egELkYm0DY0iIGpMTZHz9gVzK3EUHW6g9HCuGzmIsEOBWbSp4BCBEtCrRLXP6tkO9N1eRjNJMyrkhSo7uhkdPi88RTjeuvgAD4Ohgh4PhZBpU2tOEmeydqQ0hJieVQzqB%2bhGtUKCjidwyhbaCtGwcGzgUoDTlANIIuev7eEtc01TC3NsZdbIXoQW7vNwviJuM7C/e1/r5ku0JeQRDGQyhJMEMlLyYrPZw/%2buijZ10u3mX1UOWIlKGvAtw/v4rsn9zG/egtfkTCnXF28v4ybBBjx4BlrqU5QsaM7%2bKGv3jL/O1Ms6YBwpCygjARGAarGn9Y3MRWnRlOVn6h4RWs7C3MqWCcbm4ly17Mwpzuf24pRWSx57BRMullEVNxnFJB/KL8ikDIasnIdkE9%2bnPKY3qdA5etwN/dHacGxqtCwFJZ5qq76cvXyptmBFUtCBiIoatNgrg9DjoKgeLFM0uB7AoDhf5Gzz5kwypqQ%2brM1ctj3cM/5ozV7Rs4d/wMHaBAdF3raXQAAAABJRU5ErkJggg==' /%3e%3c/svg%3e"},"tags":[{"id":"terminal","title":"terminal","path":"/tag/terminal/"},{"id":"mac osx","title":"mac osx","path":"/tag/mac%20osx/"}],"author":{"id":"bryan-dugan","title":"bryan-dugan","path":"/author/bryan-dugan/"}}}]}},"context":{}}