{"hash":"f37412de810535be093a210830705a6276715b41","data":{"author":{"id":"bryan-dugan","title":"bryan-dugan","path":"/author/bryan-dugan/","belongsTo":{"totalCount":26,"pageInfo":{"totalPages":5,"currentPage":4},"edges":[{"node":{"id":"72efb94ae529e631f7d1bc4b57b77c50","title":"Serverpilot Server Configuation","datetime":"2019-10-02 00:00:00","path":"/serverpilot-server-configuration/","content":"<p>This is a list of all the configuration changes I made to my Digital Ocean/ServerPilot server.</p>\n<h2 id=\"installed-applications\"><a href=\"#installed-applications\" aria-hidden=\"true\"><span class=\"icon icon-link\"></span></a>Installed Applications</h2>\n<p>I have installed the Auto MySql Backup, Imagick, and Zip/Unzip applications to the server. Refer to the instructions below on how to install them yourself.</p>\n<h3 id=\"auto-mysql-backup\"><a href=\"#auto-mysql-backup\" aria-hidden=\"true\"><span class=\"icon icon-link\"></span></a>Auto MySQL Backup</h3>\n<pre class=\"language-bash\"><code class=\"language-bash\"><span class=\"token function\">apt-get</span> <span class=\"token function\">install</span> <span class=\"token function\">automysqlbackup</span></code></pre>\n<h3 id=\"imagick\"><a href=\"#imagick\" aria-hidden=\"true\"><span class=\"icon icon-link\"></span></a>Imagick</h3>\n<p><strong>Note:</strong> Replace the PHP version 7.3 with whatever version of PHP you are using.</p>\n<pre class=\"language-bash\"><code class=\"language-bash\"><span class=\"token function\">sudo</span> pecl7.3-sp <span class=\"token function\">install</span> imagick</code></pre>\n<p>Select autodetect from settings</p>\n<p><strong>Copy installation to PHP 7.3</strong></p>\n<p><strong>Note:</strong> Replace 7.3 with whatever version of PHP you are using.</p>\n<pre class=\"language-bash\"><code class=\"language-bash\"><span class=\"token function\">sudo</span> <span class=\"token function\">bash</span> -c <span class=\"token string\">\"echo extension=imagick.so > /etc/php7.3-sp/conf.d/imagick.ini\"</span></code></pre>\n<p><strong>Restart PHP</strong></p>\n<p><strong>Note:</strong> Replace 7.3 with whatever version of PHP you are using.</p>\n<pre class=\"language-bash\"><code class=\"language-bash\"><span class=\"token function\">sudo</span> <span class=\"token function\">service</span> php7.3-fpm-sp restart</code></pre>\n<h3 id=\"zip--unzip\"><a href=\"#zip--unzip\" aria-hidden=\"true\"><span class=\"icon icon-link\"></span></a>Zip / Unzip</h3>\n<pre class=\"language-bash\"><code class=\"language-bash\"><span class=\"token function\">apt-get</span> <span class=\"token function\">install</span> <span class=\"token function\">zip</span> <span class=\"token function\">unzip</span></code></pre>\n<h2 id=\"change-php-settings-per-application\"><a href=\"#change-php-settings-per-application\" aria-hidden=\"true\"><span class=\"icon icon-link\"></span></a>Change PHP Settings per Application</h2>\n<p>To change PHP.ini settings in each app, create a file called <code>.user.ini</code> and place in your public folder</p>\n<pre class=\"language-bash\"><code class=\"language-bash\"><span class=\"token function\">vim</span> apps/APPNAME/public/.user.ini</code></pre>\n<pre class=\"language-jsx\"><code class=\"language-jsx\">memory_limit <span class=\"token operator\">=</span> <span class=\"token number\">512</span>M\nmax_execution_time <span class=\"token operator\">=</span> <span class=\"token number\">300</span>\nupload_max_filesize <span class=\"token operator\">=</span> <span class=\"token number\">512</span>M</code></pre>\n<h2 id=\"change-mysql-default-settings\"><a href=\"#change-mysql-default-settings\" aria-hidden=\"true\"><span class=\"icon icon-link\"></span></a>Change MySQL Default Settings</h2>\n<pre class=\"language-bash\"><code class=\"language-bash\"><span class=\"token function\">vim</span> /etc/mysql/my.cnf</code></pre>\n<p><strong>Change max_allowed_packet setting from 16M to 32M</strong></p>\n<p><strong>Note:</strong> There was two places that need changing in the <code>my.cnf</code> file</p>\n<pre class=\"language-text\"><code class=\"language-text\">max_allowed_packed = 32M</code></pre>\n<p><strong>Restart MySQL for changes to take effect</strong></p>\n<pre class=\"language-bash\"><code class=\"language-bash\"><span class=\"token function\">sudo</span> <span class=\"token function\">service</span> mysql restart</code></pre>\n","excerpt":"","description":"A list of all the configuration changes I made to my Digital Ocean/ServerPilot server.","timeToRead":1,"tags":[{"id":"serverpilot","title":"serverpilot","path":"/tag/serverpilot/"},{"id":"hosting","title":"hosting","path":"/tag/hosting/"},{"id":"servers","title":"servers","path":"/tag/servers/"}]}},{"node":{"id":"7528a318b479ad3479028e874069c3bb","title":"Upgrade PHP with Homebrew","datetime":"2019-08-12 00:00:00","path":"/upgrade-php-with-homebrew/","content":"<p>Need to update PHP for use with your local development stack? This short guide will run you through how to do just that, as well as upgrading your PHP version in Laravel Valet.</p>\n<h2 id=\"upgrading-php-with-homebrew\"><a href=\"#upgrading-php-with-homebrew\" aria-hidden=\"true\"><span class=\"icon icon-link\"></span></a>Upgrading PHP with Homebrew</h2>\n<p>Assuming you already have Homebrew installed </p>\n<p>Update Brew.</p>\n<pre class=\"language-bash\"><code class=\"language-bash\">brew update</code></pre>\n<p>Install the latest version of PHP.</p>\n<pre class=\"language-bash\"><code class=\"language-bash\">brew <span class=\"token function\">install</span> php</code></pre>\n<p>Alternatively, if you're looking to use a specific version to match your production server version you can add @ then the version number to the end of the formula. So if you wanted to install PHP 7.3, you would use the following command.</p>\n<pre class=\"language-bash\"><code class=\"language-bash\">brew <span class=\"token function\">install</span> php@7.3</code></pre>\n<p>Check which version of PHP you're currently running by using <code>php -v</code>.</p>\n<pre class=\"language-bash\"><code class=\"language-bash\">php -v\n\nPHP <span class=\"token number\">7.1</span>.30 <span class=\"token punctuation\">(</span>cli<span class=\"token punctuation\">)</span> <span class=\"token punctuation\">(</span>built: Jun <span class=\"token number\">17</span> <span class=\"token number\">2019</span> 08:52:19<span class=\"token punctuation\">)</span> <span class=\"token punctuation\">(</span> NTS <span class=\"token punctuation\">)</span>\nCopyright <span class=\"token punctuation\">(</span>c<span class=\"token punctuation\">)</span> <span class=\"token number\">1997</span>-2018 The PHP Group\nZend Engine v3.1.0, Copyright <span class=\"token punctuation\">(</span>c<span class=\"token punctuation\">)</span> <span class=\"token number\">1998</span>-2018 Zend Technologies\nwith Zend OPcache v7.1.30, Copyright <span class=\"token punctuation\">(</span>c<span class=\"token punctuation\">)</span> <span class=\"token number\">1999</span>-2018, by Zend Technologies`</code></pre>\n<p>Unlink your old PHP version from brew by typing the old PHP version minus the minor update number. (In this example's case we are using PHP <code>7.1.30</code>, so we would use PHP <code>7.1</code>)</p>\n<pre class=\"language-bash\"><code class=\"language-bash\">brew unlink php@7.1</code></pre>\n<p><strong>Note:</strong> PHP went through a formula update in 2018 where <code>php71</code> is now <code>php@7.1</code> so be sure to try both ways if you're running into issues.</p>\n<p>Link your new PHP version.</p>\n<pre class=\"language-bash\"><code class=\"language-bash\">brew <span class=\"token function\">link</span> php@7.3</code></pre>\n<p><strong>Note:</strong> Replace <code>7.3</code> with whatever version of PHP you want to switch to or remove <code>@7.3</code> completely if you just ran <code>brew install php</code></p>\n<hr>\n<h2 id=\"updating-your-path\"><a href=\"#updating-your-path\" aria-hidden=\"true\"><span class=\"icon icon-link\"></span></a>Updating Your $PATH</h2>\n<p>Now that your PHP is updated and linked, make sure your <code>$PATH</code> is properly setup.</p>\n<p>Open <code>~/.bash_profile</code> in your favorite text editor and add the following: (Replace PHP 7.3.7 with whatever version of PHP you're using)</p>\n<pre class=\"language-bash\"><code class=\"language-bash\"><span class=\"token comment\"># Setting PATH for PHP 7.3</span>\n<span class=\"token builtin class-name\">export</span> <span class=\"token assign-left variable\"><span class=\"token environment constant\">PATH</span></span><span class=\"token operator\">=</span><span class=\"token string\">\"/usr/local/opt/php@7.3.7/bin:<span class=\"token environment constant\">$PATH</span>\"</span>\n<span class=\"token builtin class-name\">export</span> <span class=\"token assign-left variable\"><span class=\"token environment constant\">PATH</span></span><span class=\"token operator\">=</span><span class=\"token string\">\"/usr/local/opt/php@7.3.7/sbin:<span class=\"token environment constant\">$PATH</span>\"</span></code></pre>\n<p><strong>Note</strong>: After modifying your <code>.bash_profile</code> you must fully close out of your terminal and re-launch it for your changes to take effect. Alternatively, you can type <code>source ~/.bash_profile</code> in your terminal for the changes to take effect.</p>\n<hr>\n<h2 id=\"adding-php-packages\"><a href=\"#adding-php-packages\" aria-hidden=\"true\"><span class=\"icon icon-link\"></span></a>Adding PHP Packages</h2>\n<p>Homebrew now uses PECL for all PHP packages, you may need to reinstall any packages that were previously managed with Homebrew.</p>\n<p>To find out if you're already using PECL packages type the following command in your terminal to list out any packages that you may have installed.</p>\n<pre class=\"language-bash\"><code class=\"language-bash\">pecl list</code></pre>\n<p>Install your PECL packages. Imagick is the only one I use, which handles image transformations in Craft CMS. To install it, run the following command</p>\n<pre class=\"language-bash\"><code class=\"language-bash\">pecl <span class=\"token function\">install</span> imagick</code></pre>\n<p><strong>Note:</strong> To to see a list of all PECL packages, refer to <a href=\"https://pecl.php.net/\" target=\"_blank\" rel=\"nofollow noopener noreferrer\">https://pecl.php.net/</a></p>\n<hr>\n<h2 id=\"configure-php-settings\"><a href=\"#configure-php-settings\" aria-hidden=\"true\"><span class=\"icon icon-link\"></span></a>Configure PHP Settings</h2>\n<p>In order to figure out where your php.ini settings are located, run the following command in your terminal.</p>\n<pre class=\"language-bash\"><code class=\"language-bash\">php --ini</code></pre>\n<p>PHP in Homebrew by default adds a file called <code>php-memory-limits.ini</code> which is in the following location. This will overwrite the settings in the default php.ini and make it easier to move over to a new installation in the future.</p>\n<pre class=\"language-bash\"><code class=\"language-bash\">Configuration File <span class=\"token punctuation\">(</span>php.ini<span class=\"token punctuation\">)</span> Path: /usr/local/etc/php/7.3\nLoaded Configuration File:         /usr/local/etc/php/7.3/php.ini\nScan <span class=\"token keyword\">for</span> additional .ini files in: /usr/local/etc/php/7.3/conf.d\nAdditional .ini files parsed:      /usr/local/etc/php/7.3/conf.d/ext-opcache.ini,\n/usr/local/etc/php/7.3/conf.d/php-memory-limits.ini</code></pre>\n<p>Modify your php-memory-limits.ini file and move over your settings. Below is a list of my personal config file.</p>\n<pre class=\"language-php\"><code class=\"language-php\"><span class=\"token punctuation\">;</span> Max memory per instance\nmemory_limit <span class=\"token operator\">=</span> <span class=\"token number\">1024</span><span class=\"token constant\">M</span>\n\n<span class=\"token punctuation\">;</span>Set the max ececution time of a script<span class=\"token punctuation\">.</span>\nmax_execution_time <span class=\"token operator\">=</span> <span class=\"token number\">300</span>\n\n<span class=\"token punctuation\">;</span>The maximum size of an uploaded file<span class=\"token punctuation\">.</span>\nupload_max_filesize <span class=\"token operator\">=</span> <span class=\"token number\">128</span><span class=\"token constant\">M</span>\n\n<span class=\"token punctuation\">;</span>Sets max size of post data allowed<span class=\"token punctuation\">.</span> This setting also affects file upload<span class=\"token punctuation\">.</span> To upload large files<span class=\"token punctuation\">,</span> this value must be larger than upload_max_filesize\npost_max_size <span class=\"token operator\">=</span> <span class=\"token number\">128</span><span class=\"token constant\">M</span></code></pre>\n<h2 id=\"upgrading-valet\"><a href=\"#upgrading-valet\" aria-hidden=\"true\"><span class=\"icon icon-link\"></span></a>Upgrading Valet</h2>\n<p>If you use Laravel Valet for all your local development, here are the steps to finish upgrading PHP. Run the following commands to update Valet in your terminal:</p>\n<p>Update all composer files. </p>\n<pre class=\"language-bash\"><code class=\"language-bash\"><span class=\"token function\">composer</span> global update</code></pre>\n<p>Run the install script for Valet.</p>\n<pre class=\"language-bash\"><code class=\"language-bash\">valet <span class=\"token function\">install</span></code></pre>\n<p>Restart Valet by running the restart script.</p>\n<pre class=\"language-bash\"><code class=\"language-bash\">valet restart</code></pre>\n","excerpt":"","description":"Need to update PHP for use with your local development stack? This short guide will run you through how to do just that, as well as upgrading your PHP version in Laravel Valet.","timeToRead":3,"tags":[{"id":"homebrew","title":"homebrew","path":"/tag/homebrew/"},{"id":"php","title":"php","path":"/tag/php/"},{"id":"development","title":"development","path":"/tag/development/"}]}},{"node":{"id":"f5d537302ed6482f30e84dbc19d622ae","title":"Update Sourcetree Password on OSX","datetime":"2019-03-14 00:00:00","path":"/update-sourcetree-password-osx/","content":"<p>I use Bitbucket and Sourcetree for versioning my code. If you've reset your password in Bitbucket or another Git client, you'll get an error or a prompt for your password every single time you try to connect to a project.</p>\n<p>In order to get Sourcetree to remember your password, you will have to delete your user profile, then re-connect to a repository. Below is a quick reference on how to get you back up and running.</p>\n<h2 id=\"1-navigate-to-the-sourcetree-settings-folder\"><a href=\"#1-navigate-to-the-sourcetree-settings-folder\" aria-hidden=\"true\"><span class=\"icon icon-link\"></span></a>1. Navigate to the Sourcetree Settings Folder</h2>\n<p>Start by Navigating to the following directory by right clicking Finder and clicking \"Go to Folder...\"</p>\n<pre class=\"language-bash\"><code class=\"language-bash\">~/Library/Application Support/SourceTree</code></pre>\n<h2 id=\"2-delete-the-users-profile\"><a href=\"#2-delete-the-users-profile\" aria-hidden=\"true\"><span class=\"icon icon-link\"></span></a>2. Delete the User's Profile</h2>\n<p>Find the account name in the list of files that you would like to reset the git password to. Once found, go ahead and delete that file.</p>\n<p><strong>Example:</strong> <code>bdugan@STAuth-bitbucket.org</code> would be the Bitbucket user's password I would like to reset, so I would delete that file.</p>\n<h2 id=\"3-restart-sourcetree\"><a href=\"#3-restart-sourcetree\" aria-hidden=\"true\"><span class=\"icon icon-link\"></span></a>3. Restart Sourcetree</h2>\n<p>The next time you connect to a repository that uses that user ID, you will be prompted for a password. Enter your password to re-connect to the repository.</p>\n<hr>\n<p>Congrats! You have just updated your Sourcetree credentials, now get back to work!</p>\n","excerpt":"","description":"If you've reset your password in Bitbucket or another Git client, you'll get an error or a prompt for your password every single time you try to connect to a project.","timeToRead":1,"tags":[{"id":"sourcetree","title":"sourcetree","path":"/tag/sourcetree/"},{"id":"development","title":"development","path":"/tag/development/"}]}},{"node":{"id":"b30499697b8a5042d69c095a2ceb898b","title":"Website launch checklist","datetime":"2018-05-18 00:00:00","path":"/website-launch-checklist/","content":"<p>While building a website, it's extremely easy to overlook small details. Here is the checklist that I personally use each time I launch a new website. Feel free to modify this list to your liking.</p>\n<ol>\n<li>Check site for errors / browser testing</li>\n<li>pa11y testing</li>\n<li>Check spelling, grammar, punctuation</li>\n<li>Test contact forms (try to create errors)</li>\n<li>Validate HTML <a href=\"https://validator.w3.org/\" target=\"_blank\" rel=\"nofollow noopener noreferrer\">https://validator.w3.org/</a> </li>\n<li>Find bad URLs with <a href=\"https://validator.w3.org/checklink\" target=\"_blank\" rel=\"nofollow noopener noreferrer\">https://validator.w3.org/checklink</a> </li>\n<li>Valid 404 page (not indexed)</li>\n<li>Form submission page (not indexed)</li>\n<li>Pages have unique page titles (Fewer than 70 chars, includes keywords)</li>\n<li>Pages have unique meta descriptions (Under 160 Chars, includes page keywords)</li>\n<li>robots.txt – is it set up to only index page content and ignore page scripts</li>\n<li>Social Media Integration – Are all profiles set up and ready to go</li>\n<li>Image Alt Tags</li>\n<li>\n<p>Google Analytics</p>\n<ol>\n<li>Set Up Analytics Account</li>\n<li>Share with needed Google Accounts</li>\n<li>Create Google Maps Business Location</li>\n</ol>\n</li>\n<li>FavIcon</li>\n<li>Click to Call / Addresses Linked to Google Maps</li>\n<li>Domains / Forwarding Domains / Email all set up</li>\n<li>Remove Placeholder Images / Test Images</li>\n<li>Check Image Sizes – Keep under 120 kb</li>\n<li>Use Progressive jpegs</li>\n<li>\n<p>Test Site Speed</p>\n<ol>\n<li><a href=\"http://www.webpagetest.org/\" target=\"_blank\" rel=\"nofollow noopener noreferrer\">http://www.webpagetest.org/</a></li>\n<li><a href=\"https://developers.google.com/speed/pagespeed/insights/\" target=\"_blank\" rel=\"nofollow noopener noreferrer\">https://developers.google.com/speed/pagespeed/insi…</a></li>\n</ol>\n</li>\n</ol>\n<h2 id=\"after-site-launch\"><a href=\"#after-site-launch\" aria-hidden=\"true\"><span class=\"icon icon-link\"></span></a><strong>After Site Launch</strong></h2>\n<ol>\n<li>\n<p>Google Search Console</p>\n<ol>\n<li>Set up www and non www versions</li>\n<li>Set Up Users</li>\n<li>Submit Sitemap</li>\n</ol>\n</li>\n</ol>\n<hr>\n<p><a href=\"/assets/files/Website_Launch_Checklist.e94ddd74182e2016f8525cad040fd63d.pdf\">Download my Spaceray Creative Website Launch Checklist Example</a></p>\n","excerpt":"","description":"The checklist that I personally use each time I launch a new website. Feel free to modify this list to your liking.","timeToRead":1,"tags":[{"id":"business","title":"business","path":"/tag/business/"},{"id":"development","title":"development","path":"/tag/development/"}]}},{"node":{"id":"cc60d9b83779abdc753e5d70f2888d5a","title":"Branding/Identity Questionnaire","datetime":"2018-03-10 00:00:00","path":"/branding-identity-questionnaire/","content":"<p>When doing a branding and identity project for a client, it's a good idea to gather an understanding of exactly what they are looking for in their brand and understand their overall goals. This also helps determine the scope of work and pricing. Use this questionnaire as a starting point for creating your own.</p>\n<p>While building your questionnaire, it's a good idea to keep the questions to a minimum. I've also found that most clients feel much more comfortable circling answers and feed off any examples that are given.</p>\n<p>Also, instead of handing out a worksheet, this questionnaire can be presented during a meeting and filled out together or over a conference call.</p>\n<hr>\n<p>Client Name:</p>\n<p>Date:</p>\n<h2 id=\"about-the-business\"><a href=\"#about-the-business\" aria-hidden=\"true\"><span class=\"icon icon-link\"></span></a>About the business</h2>\n<p><strong>Describe the business/product.</strong></p>\n<p><strong>What problem does the business solve for customers?</strong></p>\n<p><strong>What sets the business apart from others? Why should people buy from you?</strong></p>\n<p><strong>Who are your top three competitors? what do you like about their identity? what do you dislike?</strong></p>\n<p><strong>Is there a unique story behind the business name or history?</strong></p>\n<h2 id=\"about-the-customer\"><a href=\"#about-the-customer\" aria-hidden=\"true\"><span class=\"icon icon-link\"></span></a>About the customer</h2>\n<p><strong>What is the primary message you wish to convey to the customer?</strong></p>\n<p><strong>Do you have any market research about your ideal customer that you can share (Age range, interests, etc.)?</strong></p>\n<p><strong>How do customers typically find your business?</strong></p>\n<h2 id=\"about-the-identity\"><a href=\"#about-the-identity\" aria-hidden=\"true\"><span class=\"icon icon-link\"></span></a>About the identity</h2>\n<p><strong>What is the purpose of the branding/rebrand project? Why now?</strong></p>\n<p><strong>If you have a current brand/ identity what do you not like about it?</strong></p>\n<p><strong>List three brands that you like. What do you like about them?</strong></p>\n<p><strong>Using five words, describe your brand’s desired look and feel. e.g., strong, confident, elegant, techie, organic, upscale, crafty, playful, corporate</strong></p>\n<p><strong>Are there any particular colors you would like to see in the logo?</strong></p>\n<p><strong>Are there any particular fonts/lettering styles you would like to use?</strong></p>\n<p><strong>Where will your logo primarily be used? e.g., web, billboards, print materials, vehicles, t-shirts</strong></p>\n<h2 id=\"about-the-project\"><a href=\"#about-the-project\" aria-hidden=\"true\"><span class=\"icon icon-link\"></span></a>About the project</h2>\n<p><strong>Do you need anything else along with your brand identity? e.g., business cards, stationery, brochures, website, a brand guide for print shops</strong></p>\n<p><strong>Are there any existing materials that need to be updated with the new identity?</strong></p>\n<p><strong>When do you need the project completed?</strong></p>\n","excerpt":"","description":"An example branding questionnaire to hand out to potential clients.","timeToRead":2,"tags":[{"id":"business","title":"business","path":"/tag/business/"},{"id":"branding","title":"branding","path":"/tag/branding/"},{"id":"design","title":"design","path":"/tag/design/"}]}},{"node":{"id":"9ee7c3f40b3dfc950c10ff1e0cf74f70","title":"Website Questionnaire","datetime":"2018-02-22 00:00:00","path":"/website-questionnaire/","content":"<p>While building a website for clients, it's a good idea to get a better understanding of exactly why they need a website as well as knowing what content is going to go onto the website and their overall goals. Here is an example website questionnaire that I hand out to clients to get a better understanding of what it is they are looking for, as well as being able to determine the solutions and pricing I need to offer them.</p>\n<p><strong>Note:</strong> that while building your questionnaire, it's a good idea to keep the questions to a minimum. I've also found that most clients feel much more comfortable circling answers, so any question that can be multiple choice, make it multiple choice.</p>\n<hr>\n<p>Client Name:</p>\n<p>Date:</p>\n<h2 id=\"about-the-business\"><a href=\"#about-the-business\" aria-hidden=\"true\"><span class=\"icon icon-link\"></span></a>About the business</h2>\n<p><strong>Describe your business/product.</strong></p>\n<p><strong>What is the primary message you want to convey to the customer?</strong></p>\n<p><strong>Who are your top competitors?</strong></p>\n<p><strong>What sets you apart from your competition? Why should people buy from you?</strong></p>\n<p><strong>Is there a unique story behind the business name or history?</strong></p>\n<p><strong>Describe your target audience.</strong></p>\n<h2 id=\"about-the-website\"><a href=\"#about-the-website\" aria-hidden=\"true\"><span class=\"icon icon-link\"></span></a>About the website</h2>\n<p><strong>List websites related to your business that you like. What do you like about them?</strong></p>\n<p><strong>What are your top products/services that bring in income? (list up to 3)</strong></p>\n<h2 id=\"about-the-project\"><a href=\"#about-the-project\" aria-hidden=\"true\"><span class=\"icon icon-link\"></span></a>About the project</h2>\n<p><strong>What is your current goal on why you want to build a new website?</strong></p>\n<p>(e.g., bring in new leads, new look and feel, optimized website, sell a new product, new product/service)</p>\n<p><strong>Did you need content written for the website?</strong></p>\n<p><strong>When do you need the project completed? List an exact date if you need it for a product/service launch.</strong> </p>\n<p>(1-2 months, 3-6 months 7-9 months, 1+ years)</p>\n<p><strong>What kind of budget did you have in mind?</strong></p>\n<p>($4-5k, $6-10k, $11k-25k, $25k+)</p>\n<p><strong>How many pages is your site going to be?</strong></p>\n<p>(1-3? 3-7? 8-20? 20+)</p>\n<p><strong>What particular features are going to be included on the website?</strong></p>\n<p>(blog, photo gallery, E-commerce, staff gallery, online bill pay)</p>\n<p>Feel free to list any other features you feel you will need.</p>\n<p><strong>Are there any other services you’re interested in?</strong> </p>\n<p>(photography, branding, print materials, video)</p>\n<p><strong>Keyword focus.</strong></p>\n<p>If you've done any research on keywords you would like to rank for, list them here.</p>\n","excerpt":"","description":"An example website questionnaire to hand out to potential clients.","timeToRead":2,"tags":[{"id":"business","title":"business","path":"/tag/business/"},{"id":"development","title":"development","path":"/tag/development/"},{"id":"design","title":"design","path":"/tag/design/"}]}}]}}},"context":{}}